MSI (s) (44:50) [22:07:09:226]: Product: Crystal Report 2008 Runtime SP3 -- Configuration failed.

MSI (s) (44:50) [22:07:09:226]: Windows Installer reconfigured the product. Product Name: Crystal Report 2008 Runtime SP3. Product Version: 12.3.2.753. Product Language: 1033. Manufacturer: SAP AG. Reconfiguration success or error status: 1638.

Another version of this product is already installed. Installation of this version cannot continue. To configure or remove the existing version of this product, use Add/Remove Programs on the Control Panel.
{C484CC8D-03CF-4022-89C4-DB4F02E8A15B}
