=== Logging started: 28-03-2018  22:06:42 ===
Action start 22:06:42: INSTALL.
Action start 22:06:42: WindowsFolder.A95D0BB4_0582_442D_B456_D295EAEB7628.
Action ended 22:06:42: WindowsFolder.A95D0BB4_0582_442D_B456_D295EAEB7628. Return value 1.
Action start 22:06:42: SystemFolder.A95D0BB4_0582_442D_B456_D295EAEB7628.
Action ended 22:06:42: SystemFolder.A95D0BB4_0582_442D_B456_D295EAEB7628. Return value 1.
Action start 22:06:42: CommonFilesFolder.A95D0BB4_0582_442D_B456_D295EAEB7628.
Action ended 22:06:42: CommonFilesFolder.A95D0BB4_0582_442D_B456_D295EAEB7628. Return value 1.
Action start 22:06:42: ProgramFilesFolder.A95D0BB4_0582_442D_B456_D295EAEB7628.
Action ended 22:06:42: ProgramFilesFolder.A95D0BB4_0582_442D_B456_D295EAEB7628. Return value 1.
Action start 22:06:42: ProgramFilesFolder.68FCF676_98BE_41AD_8EC9_E806EEC940CB.
Action ended 22:06:42: ProgramFilesFolder.68FCF676_98BE_41AD_8EC9_E806EEC940CB. Return value 1.
Action start 22:06:42: CommonFilesFolder.68FCF676_98BE_41AD_8EC9_E806EEC940CB.
Action ended 22:06:42: CommonFilesFolder.68FCF676_98BE_41AD_8EC9_E806EEC940CB. Return value 1.
Action start 22:06:42: AppSearch.
Action ended 22:06:42: AppSearch. Return value 1.
Action start 22:06:42: FindRelatedProducts.
Action ended 22:06:42: FindRelatedProducts. Return value 1.
Action start 22:06:42: LaunchConditions.
Action ended 22:06:42: LaunchConditions. Return value 1.
Action start 22:06:42: CCPSearch.
Action ended 22:06:42: CCPSearch. Return value 1.
Action start 22:06:42: RMCCPSearch.
Action ended 22:06:42: RMCCPSearch. Return value 0.
Action start 22:06:42: ValidateProductID.
Action ended 22:06:42: ValidateProductID. Return value 1.
Action start 22:06:42: DetectWantedSoftware.A95D0BB4_0582_442D_B456_D295EAEB7628.
Netscape Server cannot be found.
Searching for file C:\Program Files (x86)\Common Files\System\ole db\msolap.dll
Action ended 22:06:42: DetectWantedSoftware.A95D0BB4_0582_442D_B456_D295EAEB7628. Return value 1.
Action start 22:06:42: DIRCA_TARGETDIR.
Action ended 22:06:42: DIRCA_TARGETDIR. Return value 1.
Action start 22:06:42: CostInitialize.
Action ended 22:06:42: CostInitialize. Return value 1.
Action start 22:06:42: FileCost.
Action ended 22:06:42: FileCost. Return value 1.
Action start 22:06:42: IsolateComponents.
Action ended 22:06:42: IsolateComponents. Return value 1.
Action start 22:06:42: SetMsdevTemplatePath.A95D0BB4_0582_442D_B456_D295EAEB7628.
Action ended 22:06:42: SetMsdevTemplatePath.A95D0BB4_0582_442D_B456_D295EAEB7628. Return value 1.
Action start 22:06:42: CostFinalize.
Action ended 22:06:42: CostFinalize. Return value 1.
Action start 22:06:42: SetODBCPath.A95D0BB4_0582_442D_B456_D295EAEB7628.
Action ended 22:06:42: SetODBCPath.A95D0BB4_0582_442D_B456_D295EAEB7628. Return value 1.
Action start 22:06:42: SetODBCFolders.
Action ended 22:06:42: SetODBCFolders. Return value 1.
Action start 22:06:42: InstallValidate.
Action ended 22:06:42: InstallValidate. Return value 1.
Action start 22:06:42: GetPid.A95D0BB4_0582_442D_B456_D295EAEB7628.
Action ended 22:06:42: GetPid.A95D0BB4_0582_442D_B456_D295EAEB7628. Return value 1.
Action start 22:06:42: InstallInitialize.
Action ended 22:06:43: InstallInitialize. Return value 1.
Action start 22:06:43: GetWebInfo.A95D0BB4_0582_442D_B456_D295EAEB7628.
SaveTableToIniFile: Table SeagateWebVirtualDir doesn't exist
SaveTableToIniFile: Table SeagateWebMimeType doesn't exist
Couldn't get component state for component "wcsdsapi.dll.413A0FA5_373A_11D4_91AE_009027A76C22".uReturn 1607
DEBUG: Error 2769:  Custom Action GetWebInfo.A95D0BB4_0582_442D_B456_D295EAEB7628 did not close 2 MSIHANDLEs.
The installer has encountered an unexpected error installing this package. This may indicate a problem with this package. The error code is 2769. The arguments are: GetWebInfo.A95D0BB4_0582_442D_B456_D295EAEB7628, 2, 
Action ended 22:06:43: GetWebInfo.A95D0BB4_0582_442D_B456_D295EAEB7628. Return value 1.
Action start 22:06:43: RemoveExistingProducts.
Action ended 22:06:43: RemoveExistingProducts. Return value 1.
Action start 22:06:43: AddProgressTime2.A95D0BB4_0582_442D_B456_D295EAEB7628.
AddTimeToProgressBar: Adding 60 seconds
Action ended 22:06:43: AddProgressTime2.A95D0BB4_0582_442D_B456_D295EAEB7628. Return value 1.
Action start 22:06:43: CommitWindowsSettingsAction.A95D0BB4_0582_442D_B456_D295EAEB7628.
Action ended 22:06:43: CommitWindowsSettingsAction.A95D0BB4_0582_442D_B456_D295EAEB7628. Return value 1.
Action start 22:06:43: AllocateRegistrySpace.
Action ended 22:06:43: AllocateRegistrySpace. Return value 1.
Action start 22:06:43: ProcessComponents.
Action ended 22:06:43: ProcessComponents. Return value 1.
Action start 22:06:43: AddProgressTime1.A95D0BB4_0582_442D_B456_D295EAEB7628.
AddProgressTime1:Started
AddTimeToProgressBar: Adding 170 seconds
Action ended 22:06:43: AddProgressTime1.A95D0BB4_0582_442D_B456_D295EAEB7628. Return value 1.
Action start 22:06:43: MsiUnpublishAssemblies.
Action ended 22:06:43: MsiUnpublishAssemblies. Return value 1.
Action start 22:06:43: UnpublishComponents.
Action ended 22:06:43: UnpublishComponents. Return value 1.
Action start 22:06:43: UnpublishFeatures.
Action ended 22:06:43: UnpublishFeatures. Return value 1.
Action start 22:06:43: StopServices.
Action ended 22:06:43: StopServices. Return value 1.
Action start 22:06:43: UnConfigureWebServices.A95D0BB4_0582_442D_B456_D295EAEB7628.
Action ended 22:06:43: UnConfigureWebServices.A95D0BB4_0582_442D_B456_D295EAEB7628. Return value 1.
Action start 22:06:43: DeleteServices.
Action ended 22:06:43: DeleteServices. Return value 1.
Action start 22:06:43: UnregisterComPlus.
Action ended 22:06:43: UnregisterComPlus. Return value 1.
Action start 22:06:43: SelfUnregModules.
Action ended 22:06:43: SelfUnregModules. Return value 1.
Action start 22:06:43: UnregisterTypeLibraries.
Action ended 22:06:43: UnregisterTypeLibraries. Return value 1.
Action start 22:06:43: RemoveODBC.
Action ended 22:06:43: RemoveODBC. Return value 1.
Action start 22:06:43: UnregisterFonts.
Action ended 22:06:43: UnregisterFonts. Return value 1.
Action start 22:06:43: RemoveRegistryValues.
Action ended 22:06:43: RemoveRegistryValues. Return value 1.
Action start 22:06:43: UnregisterClassInfo.
Action ended 22:06:43: UnregisterClassInfo. Return value 1.
Action start 22:06:43: UnregisterExtensionInfo.
Action ended 22:06:43: UnregisterExtensionInfo. Return value 1.
Action start 22:06:43: UnregisterProgIdInfo.
Action ended 22:06:43: UnregisterProgIdInfo. Return value 1.
Action start 22:06:43: UnregisterMIMEInfo.
Action ended 22:06:43: UnregisterMIMEInfo. Return value 1.
Action start 22:06:43: RemoveIniValues.
Action ended 22:06:43: RemoveIniValues. Return value 1.
Action start 22:06:43: RemoveShortcuts.
Action ended 22:06:43: RemoveShortcuts. Return value 1.
Action start 22:06:43: RemoveEnvironmentStrings.
Action ended 22:06:43: RemoveEnvironmentStrings. Return value 1.
Action start 22:06:43: RemoveDuplicateFiles.
Action ended 22:06:43: RemoveDuplicateFiles. Return value 1.
Action start 22:06:43: RemoveFiles.
Action ended 22:06:43: RemoveFiles. Return value 1.
Action start 22:06:43: RemoveFolders.
Action ended 22:06:43: RemoveFolders. Return value 1.
Action start 22:06:43: CreateFolders.
Action ended 22:06:43: CreateFolders. Return value 1.
Action start 22:06:43: MoveFiles.
Action ended 22:06:43: MoveFiles. Return value 1.
Action start 22:06:43: CheckSeagateCondition.A95D0BB4_0582_442D_B456_D295EAEB7628.
Action ended 22:06:43: CheckSeagateCondition.A95D0BB4_0582_442D_B456_D295EAEB7628. Return value 1.
Action start 22:06:43: InstallFiles.
Action ended 22:06:43: InstallFiles. Return value 1.
Action start 22:06:43: PatchFiles.
Action ended 22:06:43: PatchFiles. Return value 1.
Action start 22:06:43: DuplicateFiles.
Action ended 22:06:43: DuplicateFiles. Return value 1.
Action start 22:06:43: BindImage.
Action ended 22:06:43: BindImage. Return value 1.
Action start 22:06:43: CreateInetShortcuts.A95D0BB4_0582_442D_B456_D295EAEB7628.
Action ended 22:06:43: CreateInetShortcuts.A95D0BB4_0582_442D_B456_D295EAEB7628. Return value 1.
Action start 22:06:43: CreateShortcuts.
Action ended 22:06:43: CreateShortcuts. Return value 1.
Action start 22:06:43: ConfigureWebServices.A95D0BB4_0582_442D_B456_D295EAEB7628.
Action ended 22:06:43: ConfigureWebServices.A95D0BB4_0582_442D_B456_D295EAEB7628. Return value 1.
Action start 22:06:43: RegisterClassInfo.
Action ended 22:06:43: RegisterClassInfo. Return value 1.
Action start 22:06:43: RegisterExtensionInfo.
Action ended 22:06:43: RegisterExtensionInfo. Return value 1.
Action start 22:06:43: RegisterProgIdInfo.
Action ended 22:06:43: RegisterProgIdInfo. Return value 1.
Action start 22:06:43: RegisterMIMEInfo.
Action ended 22:06:43: RegisterMIMEInfo. Return value 1.
Action start 22:06:43: FixRegistry.A95D0BB4_0582_442D_B456_D295EAEB7628.
Action ended 22:06:45: FixRegistry.A95D0BB4_0582_442D_B456_D295EAEB7628. Return value 1.
Action start 22:06:45: WriteRegistryValues.
Action ended 22:06:45: WriteRegistryValues. Return value 1.
Action start 22:06:45: WriteIniValues.
Action ended 22:06:45: WriteIniValues. Return value 1.
Action start 22:06:45: WriteEnvironmentStrings.
Action ended 22:06:45: WriteEnvironmentStrings. Return value 1.
Action start 22:06:45: RegisterFonts.
Action ended 22:06:45: RegisterFonts. Return value 1.
Action start 22:06:45: InstallODBC.
Action ended 22:06:45: InstallODBC. Return value 0.
Action start 22:06:45: RegisterTypeLibraries.
Action ended 22:06:45: RegisterTypeLibraries. Return value 1.
Action start 22:06:45: SelfRegModules.
Action ended 22:06:45: SelfRegModules. Return value 1.
Action start 22:06:45: RegisterComPlus.
Action ended 22:06:45: RegisterComPlus. Return value 1.
Action start 22:06:45: RemoveIPService.A95D0BB4_0582_442D_B456_D295EAEB7628.
DEBUG: Error 2769:  Custom Action RemoveIPService.A95D0BB4_0582_442D_B456_D295EAEB7628 did not close 1 MSIHANDLEs.
The installer has encountered an unexpected error installing this package. This may indicate a problem with this package. The error code is 2769. The arguments are: RemoveIPService.A95D0BB4_0582_442D_B456_D295EAEB7628, 1, 
Action ended 22:06:45: RemoveIPService.A95D0BB4_0582_442D_B456_D295EAEB7628. Return value 1.
Action start 22:06:45: AddIPService.A95D0BB4_0582_442D_B456_D295EAEB7628.
DEBUG: Error 2769:  Custom Action AddIPService.A95D0BB4_0582_442D_B456_D295EAEB7628 did not close 1 MSIHANDLEs.
The installer has encountered an unexpected error installing this package. This may indicate a problem with this package. The error code is 2769. The arguments are: AddIPService.A95D0BB4_0582_442D_B456_D295EAEB7628, 1, 
Action ended 22:06:45: AddIPService.A95D0BB4_0582_442D_B456_D295EAEB7628. Return value 1.
Action start 22:06:45: InstallServices.
Action ended 22:06:45: InstallServices. Return value 1.
Action start 22:06:45: QueryService.A95D0BB4_0582_442D_B456_D295EAEB7628.
DEBUG: Error 2769:  Custom Action QueryService.A95D0BB4_0582_442D_B456_D295EAEB7628 did not close 1 MSIHANDLEs.
The installer has encountered an unexpected error installing this package. This may indicate a problem with this package. The error code is 2769. The arguments are: QueryService.A95D0BB4_0582_442D_B456_D295EAEB7628, 1, 
Action ended 22:06:45: QueryService.A95D0BB4_0582_442D_B456_D295EAEB7628. Return value 1.
Action start 22:06:45: FixService.A95D0BB4_0582_442D_B456_D295EAEB7628.
Action ended 22:06:45: FixService.A95D0BB4_0582_442D_B456_D295EAEB7628. Return value 1.
Action start 22:06:45: StartServices.
Action ended 22:06:45: StartServices. Return value 1.
Action start 22:06:45: RegisterUser.
Action ended 22:06:45: RegisterUser. Return value 1.
Action start 22:06:45: RegisterProduct.
Action ended 22:06:45: RegisterProduct. Return value 1.
Action start 22:06:45: PublishComponents.
Action ended 22:06:45: PublishComponents. Return value 1.
Action start 22:06:45: MsiPublishAssemblies.
Action ended 22:06:45: MsiPublishAssemblies. Return value 1.
Action start 22:06:45: PublishFeatures.
Action ended 22:06:45: PublishFeatures. Return value 1.
Action start 22:06:45: PublishProduct.
Action ended 22:06:45: PublishProduct. Return value 1.
Action start 22:06:45: InstallFinalize.
No web components to uninstall
UseProgressTime: 30 seconds
UseProgressTime: 60 seconds
Action ended 22:06:51: InstallFinalize. Return value 1.
Action ended 22:06:51: INSTALL. Return value 1.
MSI (s) (44:50) [22:06:51:926]: Product: Vista - Crystal Reports 9 Components -- Installation completed successfully.

MSI (s) (44:50) [22:06:51:926]: Windows Installer installed the product. Product Name: Vista - Crystal Reports 9 Components. Product Version: 30.0.5. Product Language: 1033. Manufacturer: Vista. Installation success or error status: 0.

=== Logging stopped: 28-03-2018  22:06:51 ===
