=== Logging started: 4/26/2017  20:49:21 ===
Action start 20:49:21: INSTALL.
Action start 20:49:21: WindowsFolder.A95D0BB4_0582_442D_B456_D295EAEB7628.
Action ended 20:49:21: WindowsFolder.A95D0BB4_0582_442D_B456_D295EAEB7628. Return value 1.
Action start 20:49:21: SystemFolder.A95D0BB4_0582_442D_B456_D295EAEB7628.
Action ended 20:49:21: SystemFolder.A95D0BB4_0582_442D_B456_D295EAEB7628. Return value 1.
Action start 20:49:21: CommonFilesFolder.A95D0BB4_0582_442D_B456_D295EAEB7628.
Action ended 20:49:21: CommonFilesFolder.A95D0BB4_0582_442D_B456_D295EAEB7628. Return value 1.
Action start 20:49:21: ProgramFilesFolder.A95D0BB4_0582_442D_B456_D295EAEB7628.
Action ended 20:49:21: ProgramFilesFolder.A95D0BB4_0582_442D_B456_D295EAEB7628. Return value 1.
Action start 20:49:21: ProgramFilesFolder.68FCF676_98BE_41AD_8EC9_E806EEC940CB.
Action ended 20:49:21: ProgramFilesFolder.68FCF676_98BE_41AD_8EC9_E806EEC940CB. Return value 1.
Action start 20:49:21: CommonFilesFolder.68FCF676_98BE_41AD_8EC9_E806EEC940CB.
Action ended 20:49:21: CommonFilesFolder.68FCF676_98BE_41AD_8EC9_E806EEC940CB. Return value 1.
Action start 20:49:21: AppSearch.
Action ended 20:49:21: AppSearch. Return value 1.
Action start 20:49:21: FindRelatedProducts.
Action ended 20:49:21: FindRelatedProducts. Return value 1.
Action start 20:49:21: LaunchConditions.
Action ended 20:49:21: LaunchConditions. Return value 1.
Action start 20:49:21: CCPSearch.
Action ended 20:49:21: CCPSearch. Return value 1.
Action start 20:49:21: RMCCPSearch.
Action ended 20:49:21: RMCCPSearch. Return value 0.
Action start 20:49:21: ValidateProductID.
Action ended 20:49:21: ValidateProductID. Return value 1.
Action start 20:49:21: DetectWantedSoftware.A95D0BB4_0582_442D_B456_D295EAEB7628.
Netscape Server cannot be found.
Searching for file C:\Program Files (x86)\Common Files\System\ole db\msolap.dll
Action ended 20:49:21: DetectWantedSoftware.A95D0BB4_0582_442D_B456_D295EAEB7628. Return value 1.
Action start 20:49:21: DIRCA_TARGETDIR.
Action ended 20:49:21: DIRCA_TARGETDIR. Return value 1.
Action start 20:49:21: CostInitialize.
Action ended 20:49:21: CostInitialize. Return value 1.
Action start 20:49:21: FileCost.
Action ended 20:49:21: FileCost. Return value 1.
Action start 20:49:21: IsolateComponents.
Action ended 20:49:21: IsolateComponents. Return value 1.
Action start 20:49:21: SetMsdevTemplatePath.A95D0BB4_0582_442D_B456_D295EAEB7628.
Action ended 20:49:21: SetMsdevTemplatePath.A95D0BB4_0582_442D_B456_D295EAEB7628. Return value 1.
Action start 20:49:21: CostFinalize.
Action ended 20:49:22: CostFinalize. Return value 1.
Action start 20:49:22: SetODBCPath.A95D0BB4_0582_442D_B456_D295EAEB7628.
Action ended 20:49:22: SetODBCPath.A95D0BB4_0582_442D_B456_D295EAEB7628. Return value 1.
Action start 20:49:22: SetODBCFolders.
Action ended 20:49:22: SetODBCFolders. Return value 1.
Action start 20:49:22: InstallValidate.
Action ended 20:49:22: InstallValidate. Return value 1.
Action start 20:49:22: GetPid.A95D0BB4_0582_442D_B456_D295EAEB7628.
Action ended 20:49:22: GetPid.A95D0BB4_0582_442D_B456_D295EAEB7628. Return value 1.
Action start 20:49:22: InstallInitialize.
Action ended 20:49:22: InstallInitialize. Return value 1.
Action start 20:49:22: GetWebInfo.A95D0BB4_0582_442D_B456_D295EAEB7628.
SaveTableToIniFile: Table SeagateWebVirtualDir doesn't exist
SaveTableToIniFile: Table SeagateWebMimeType doesn't exist
Couldn't get component state for component "wcsdsapi.dll.413A0FA5_373A_11D4_91AE_009027A76C22".uReturn 1607
DEBUG: Error 2769:  Custom Action GetWebInfo.A95D0BB4_0582_442D_B456_D295EAEB7628 did not close 2 MSIHANDLEs.
The installer has encountered an unexpected error installing this package. This may indicate a problem with this package. The error code is 2769. The arguments are: GetWebInfo.A95D0BB4_0582_442D_B456_D295EAEB7628, 2, 
Action ended 20:49:22: GetWebInfo.A95D0BB4_0582_442D_B456_D295EAEB7628. Return value 1.
Action start 20:49:22: RemoveExistingProducts.
Action ended 20:49:22: RemoveExistingProducts. Return value 1.
Action start 20:49:22: AddProgressTime2.A95D0BB4_0582_442D_B456_D295EAEB7628.
AddTimeToProgressBar: Adding 60 seconds
Action ended 20:49:22: AddProgressTime2.A95D0BB4_0582_442D_B456_D295EAEB7628. Return value 1.
Action start 20:49:22: CommitWindowsSettingsAction.A95D0BB4_0582_442D_B456_D295EAEB7628.
Action ended 20:49:22: CommitWindowsSettingsAction.A95D0BB4_0582_442D_B456_D295EAEB7628. Return value 1.
Action start 20:49:22: AllocateRegistrySpace.
Action ended 20:49:22: AllocateRegistrySpace. Return value 1.
Action start 20:49:22: ProcessComponents.
Action ended 20:49:22: ProcessComponents. Return value 1.
Action start 20:49:22: AddProgressTime1.A95D0BB4_0582_442D_B456_D295EAEB7628.
AddProgressTime1:Started
AddTimeToProgressBar: Adding 170 seconds
Action ended 20:49:22: AddProgressTime1.A95D0BB4_0582_442D_B456_D295EAEB7628. Return value 1.
Action start 20:49:22: MsiUnpublishAssemblies.
Action ended 20:49:22: MsiUnpublishAssemblies. Return value 1.
Action start 20:49:22: UnpublishComponents.
Action ended 20:49:22: UnpublishComponents. Return value 1.
Action start 20:49:22: UnpublishFeatures.
Action ended 20:49:22: UnpublishFeatures. Return value 1.
Action start 20:49:22: StopServices.
Action ended 20:49:22: StopServices. Return value 1.
Action start 20:49:22: UnConfigureWebServices.A95D0BB4_0582_442D_B456_D295EAEB7628.
Action ended 20:49:22: UnConfigureWebServices.A95D0BB4_0582_442D_B456_D295EAEB7628. Return value 1.
Action start 20:49:22: DeleteServices.
Action ended 20:49:22: DeleteServices. Return value 1.
Action start 20:49:22: UnregisterComPlus.
Action ended 20:49:22: UnregisterComPlus. Return value 1.
Action start 20:49:22: SelfUnregModules.
Action ended 20:49:22: SelfUnregModules. Return value 1.
Action start 20:49:22: UnregisterTypeLibraries.
Action ended 20:49:22: UnregisterTypeLibraries. Return value 1.
Action start 20:49:22: RemoveODBC.
Action ended 20:49:22: RemoveODBC. Return value 1.
Action start 20:49:22: UnregisterFonts.
Action ended 20:49:22: UnregisterFonts. Return value 1.
Action start 20:49:22: RemoveRegistryValues.
Action ended 20:49:22: RemoveRegistryValues. Return value 1.
Action start 20:49:22: UnregisterClassInfo.
Action ended 20:49:22: UnregisterClassInfo. Return value 1.
Action start 20:49:22: UnregisterExtensionInfo.
Action ended 20:49:22: UnregisterExtensionInfo. Return value 1.
Action start 20:49:22: UnregisterProgIdInfo.
Action ended 20:49:22: UnregisterProgIdInfo. Return value 1.
Action start 20:49:22: UnregisterMIMEInfo.
Action ended 20:49:22: UnregisterMIMEInfo. Return value 1.
Action start 20:49:22: RemoveIniValues.
Action ended 20:49:22: RemoveIniValues. Return value 1.
Action start 20:49:22: RemoveShortcuts.
Action ended 20:49:22: RemoveShortcuts. Return value 1.
Action start 20:49:22: RemoveEnvironmentStrings.
Action ended 20:49:22: RemoveEnvironmentStrings. Return value 1.
Action start 20:49:22: RemoveDuplicateFiles.
Action ended 20:49:22: RemoveDuplicateFiles. Return value 1.
Action start 20:49:22: RemoveFiles.
Action ended 20:49:22: RemoveFiles. Return value 1.
Action start 20:49:22: RemoveFolders.
Action ended 20:49:22: RemoveFolders. Return value 1.
Action start 20:49:22: CreateFolders.
Action ended 20:49:22: CreateFolders. Return value 1.
Action start 20:49:22: MoveFiles.
Action ended 20:49:22: MoveFiles. Return value 1.
Action start 20:49:22: CheckSeagateCondition.A95D0BB4_0582_442D_B456_D295EAEB7628.
Action ended 20:49:22: CheckSeagateCondition.A95D0BB4_0582_442D_B456_D295EAEB7628. Return value 1.
Action start 20:49:22: InstallFiles.
Action ended 20:49:22: InstallFiles. Return value 1.
Action start 20:49:22: PatchFiles.
Action ended 20:49:22: PatchFiles. Return value 1.
Action start 20:49:22: DuplicateFiles.
Action ended 20:49:22: DuplicateFiles. Return value 1.
Action start 20:49:22: BindImage.
Action ended 20:49:22: BindImage. Return value 1.
Action start 20:49:22: CreateInetShortcuts.A95D0BB4_0582_442D_B456_D295EAEB7628.
Action ended 20:49:22: CreateInetShortcuts.A95D0BB4_0582_442D_B456_D295EAEB7628. Return value 1.
Action start 20:49:22: CreateShortcuts.
Action ended 20:49:22: CreateShortcuts. Return value 1.
Action start 20:49:22: ConfigureWebServices.A95D0BB4_0582_442D_B456_D295EAEB7628.
Action ended 20:49:22: ConfigureWebServices.A95D0BB4_0582_442D_B456_D295EAEB7628. Return value 1.
Action start 20:49:22: RegisterClassInfo.
Action ended 20:49:22: RegisterClassInfo. Return value 1.
Action start 20:49:22: RegisterExtensionInfo.
Action ended 20:49:22: RegisterExtensionInfo. Return value 1.
Action start 20:49:22: RegisterProgIdInfo.
Action ended 20:49:22: RegisterProgIdInfo. Return value 1.
Action start 20:49:22: RegisterMIMEInfo.
Action ended 20:49:22: RegisterMIMEInfo. Return value 1.
Action start 20:49:22: FixRegistry.A95D0BB4_0582_442D_B456_D295EAEB7628.
Action ended 20:49:25: FixRegistry.A95D0BB4_0582_442D_B456_D295EAEB7628. Return value 1.
Action start 20:49:25: WriteRegistryValues.
Action ended 20:49:25: WriteRegistryValues. Return value 1.
Action start 20:49:25: WriteIniValues.
Action ended 20:49:25: WriteIniValues. Return value 1.
Action start 20:49:25: WriteEnvironmentStrings.
Action ended 20:49:25: WriteEnvironmentStrings. Return value 1.
Action start 20:49:25: RegisterFonts.
Action ended 20:49:25: RegisterFonts. Return value 1.
Action start 20:49:25: InstallODBC.
Action ended 20:49:25: InstallODBC. Return value 0.
Action start 20:49:25: RegisterTypeLibraries.
Action ended 20:49:25: RegisterTypeLibraries. Return value 1.
Action start 20:49:25: SelfRegModules.
Action ended 20:49:25: SelfRegModules. Return value 1.
Action start 20:49:25: RegisterComPlus.
Action ended 20:49:25: RegisterComPlus. Return value 1.
Action start 20:49:25: RemoveIPService.A95D0BB4_0582_442D_B456_D295EAEB7628.
DEBUG: Error 2769:  Custom Action RemoveIPService.A95D0BB4_0582_442D_B456_D295EAEB7628 did not close 1 MSIHANDLEs.
The installer has encountered an unexpected error installing this package. This may indicate a problem with this package. The error code is 2769. The arguments are: RemoveIPService.A95D0BB4_0582_442D_B456_D295EAEB7628, 1, 
Action ended 20:49:25: RemoveIPService.A95D0BB4_0582_442D_B456_D295EAEB7628. Return value 1.
Action start 20:49:25: AddIPService.A95D0BB4_0582_442D_B456_D295EAEB7628.
DEBUG: Error 2769:  Custom Action AddIPService.A95D0BB4_0582_442D_B456_D295EAEB7628 did not close 1 MSIHANDLEs.
The installer has encountered an unexpected error installing this package. This may indicate a problem with this package. The error code is 2769. The arguments are: AddIPService.A95D0BB4_0582_442D_B456_D295EAEB7628, 1, 
Action ended 20:49:25: AddIPService.A95D0BB4_0582_442D_B456_D295EAEB7628. Return value 1.
Action start 20:49:25: InstallServices.
Action ended 20:49:25: InstallServices. Return value 1.
Action start 20:49:25: QueryService.A95D0BB4_0582_442D_B456_D295EAEB7628.
DEBUG: Error 2769:  Custom Action QueryService.A95D0BB4_0582_442D_B456_D295EAEB7628 did not close 1 MSIHANDLEs.
The installer has encountered an unexpected error installing this package. This may indicate a problem with this package. The error code is 2769. The arguments are: QueryService.A95D0BB4_0582_442D_B456_D295EAEB7628, 1, 
Action ended 20:49:25: QueryService.A95D0BB4_0582_442D_B456_D295EAEB7628. Return value 1.
Action start 20:49:25: FixService.A95D0BB4_0582_442D_B456_D295EAEB7628.
Action ended 20:49:25: FixService.A95D0BB4_0582_442D_B456_D295EAEB7628. Return value 1.
Action start 20:49:25: StartServices.
Action ended 20:49:25: StartServices. Return value 1.
Action start 20:49:25: RegisterUser.
Action ended 20:49:25: RegisterUser. Return value 1.
Action start 20:49:25: RegisterProduct.
Action ended 20:49:25: RegisterProduct. Return value 1.
Action start 20:49:25: PublishComponents.
Action ended 20:49:25: PublishComponents. Return value 1.
Action start 20:49:25: MsiPublishAssemblies.
Action ended 20:49:25: MsiPublishAssemblies. Return value 1.
Action start 20:49:25: PublishFeatures.
Action ended 20:49:25: PublishFeatures. Return value 1.
Action start 20:49:25: PublishProduct.
Action ended 20:49:25: PublishProduct. Return value 1.
Action start 20:49:25: InstallFinalize.
No web components to uninstall
UseProgressTime: 30 seconds
UseProgressTime: 60 seconds
Action ended 20:49:33: InstallFinalize. Return value 1.
Action ended 20:49:33: INSTALL. Return value 1.
MSI (s) (B8:4C) [20:49:33:093]: Product: Vista - Crystal Reports 9 Components -- Installation completed successfully.

MSI (s) (B8:4C) [20:49:33:093]: Windows Installer installed the product. Product Name: Vista - Crystal Reports 9 Components. Product Version: 30.0.5. Product Language: 1033. Manufacturer: Vista. Installation success or error status: 0.

=== Logging stopped: 4/26/2017  20:49:33 ===
