=== Logging started: 4/26/2017  20:12:50 ===
Action start 20:12:50: INSTALL.
Action start 20:12:50: AppSearch.
Action ended 20:12:50: AppSearch. Return value 1.
Action start 20:12:50: FindRelatedProducts.
Action ended 20:12:50: FindRelatedProducts. Return value 1.
Action start 20:12:50: LaunchConditions.
Action ended 20:12:50: LaunchConditions. Return value 1.
Action start 20:12:50: CCPSearch.
Action ended 20:12:50: CCPSearch. Return value 1.
Action start 20:12:50: RMCCPSearch.
Action ended 20:12:50: RMCCPSearch. Return value 0.
Action start 20:12:50: ValidateProductID.
Action ended 20:12:50: ValidateProductID. Return value 1.
Action start 20:12:50: DIRCA_TARGETDIR.
Action ended 20:12:50: DIRCA_TARGETDIR. Return value 1.
Action start 20:12:50: CostInitialize.
Action ended 20:12:50: CostInitialize. Return value 1.
Action start 20:12:50: FileCost.
Action ended 20:12:50: FileCost. Return value 1.
Action start 20:12:50: IsolateComponents.
Action ended 20:12:50: IsolateComponents. Return value 1.
Action start 20:12:50: CostFinalize.
Action ended 20:12:50: CostFinalize. Return value 1.
Action start 20:12:50: SetODBCFolders.
Action ended 20:12:50: SetODBCFolders. Return value 1.
Action start 20:12:50: InstallValidate.
Action ended 20:12:50: InstallValidate. Return value 1.
Action start 20:12:50: InstallInitialize.
Action ended 20:12:50: InstallInitialize. Return value 1.
Action start 20:12:50: AllocateRegistrySpace.
Action ended 20:12:50: AllocateRegistrySpace. Return value 1.
Action start 20:12:50: ProcessComponents.
Action ended 20:12:50: ProcessComponents. Return value 1.
Action start 20:12:50: MsiUnpublishAssemblies.
Action ended 20:12:50: MsiUnpublishAssemblies. Return value 1.
Action start 20:12:50: UnpublishComponents.
Action ended 20:12:50: UnpublishComponents. Return value 1.
Action start 20:12:50: UnpublishFeatures.
Action ended 20:12:50: UnpublishFeatures. Return value 1.
Action start 20:12:50: StopServices.
Action ended 20:12:50: StopServices. Return value 1.
Action start 20:12:50: DeleteServices.
Action ended 20:12:50: DeleteServices. Return value 1.
Action start 20:12:50: UnregisterComPlus.
Action ended 20:12:50: UnregisterComPlus. Return value 1.
Action start 20:12:50: SelfUnregModules.
Action ended 20:12:50: SelfUnregModules. Return value 1.
Action start 20:12:50: UnregisterTypeLibraries.
Action ended 20:12:50: UnregisterTypeLibraries. Return value 1.
Action start 20:12:50: RemoveODBC.
Action ended 20:12:50: RemoveODBC. Return value 1.
Action start 20:12:50: UnregisterFonts.
Action ended 20:12:50: UnregisterFonts. Return value 1.
Action start 20:12:50: RemoveRegistryValues.
Action ended 20:12:50: RemoveRegistryValues. Return value 1.
Action start 20:12:50: UnregisterClassInfo.
Action ended 20:12:50: UnregisterClassInfo. Return value 1.
Action start 20:12:50: UnregisterExtensionInfo.
Action ended 20:12:50: UnregisterExtensionInfo. Return value 1.
Action start 20:12:50: UnregisterProgIdInfo.
Action ended 20:12:50: UnregisterProgIdInfo. Return value 1.
Action start 20:12:50: UnregisterMIMEInfo.
Action ended 20:12:50: UnregisterMIMEInfo. Return value 1.
Action start 20:12:50: RemoveIniValues.
Action ended 20:12:50: RemoveIniValues. Return value 1.
Action start 20:12:50: RemoveShortcuts.
Action ended 20:12:50: RemoveShortcuts. Return value 1.
Action start 20:12:50: RemoveEnvironmentStrings.
Action ended 20:12:50: RemoveEnvironmentStrings. Return value 1.
Action start 20:12:50: RemoveDuplicateFiles.
Action ended 20:12:50: RemoveDuplicateFiles. Return value 1.
Action start 20:12:50: RemoveFiles.
Action ended 20:12:50: RemoveFiles. Return value 1.
Action start 20:12:50: RemoveFolders.
Action ended 20:12:50: RemoveFolders. Return value 1.
Action start 20:12:50: CreateFolders.
Action ended 20:12:50: CreateFolders. Return value 1.
Action start 20:12:50: MoveFiles.
Action ended 20:12:50: MoveFiles. Return value 1.
Action start 20:12:50: InstallFiles.
Action ended 20:12:50: InstallFiles. Return value 1.
Action start 20:12:50: PatchFiles.
Action ended 20:12:50: PatchFiles. Return value 1.
Action start 20:12:50: DuplicateFiles.
Action ended 20:12:50: DuplicateFiles. Return value 1.
Action start 20:12:50: BindImage.
Action ended 20:12:50: BindImage. Return value 1.
Action start 20:12:50: CreateShortcuts.
Action ended 20:12:50: CreateShortcuts. Return value 1.
Action start 20:12:50: RegisterClassInfo.
Action ended 20:12:50: RegisterClassInfo. Return value 1.
Action start 20:12:50: RegisterExtensionInfo.
Action ended 20:12:50: RegisterExtensionInfo. Return value 1.
Action start 20:12:50: RegisterProgIdInfo.
Action ended 20:12:50: RegisterProgIdInfo. Return value 1.
Action start 20:12:50: RegisterMIMEInfo.
Action ended 20:12:50: RegisterMIMEInfo. Return value 1.
Action start 20:12:50: WriteRegistryValues.
Action ended 20:12:50: WriteRegistryValues. Return value 1.
Action start 20:12:50: WriteIniValues.
Action ended 20:12:50: WriteIniValues. Return value 1.
Action start 20:12:50: WriteEnvironmentStrings.
Action ended 20:12:50: WriteEnvironmentStrings. Return value 1.
Action start 20:12:50: RegisterFonts.
Action ended 20:12:50: RegisterFonts. Return value 1.
Action start 20:12:50: InstallODBC.
Action ended 20:12:50: InstallODBC. Return value 0.
Action start 20:12:50: RegisterTypeLibraries.
Action ended 20:12:50: RegisterTypeLibraries. Return value 1.
Action start 20:12:50: SelfRegModules.
Action ended 20:12:50: SelfRegModules. Return value 1.
Action start 20:12:50: RegisterComPlus.
Action ended 20:12:50: RegisterComPlus. Return value 1.
Action start 20:12:50: InstallServices.
Action ended 20:12:50: InstallServices. Return value 1.
Action start 20:12:50: StartServices.
Action ended 20:12:50: StartServices. Return value 1.
Action start 20:12:50: RegisterUser.
Action ended 20:12:50: RegisterUser. Return value 1.
Action start 20:12:50: RegisterProduct.
Action ended 20:12:50: RegisterProduct. Return value 1.
Action start 20:12:50: PublishComponents.
Action ended 20:12:50: PublishComponents. Return value 1.
Action start 20:12:50: MsiPublishAssemblies.
Action ended 20:12:50: MsiPublishAssemblies. Return value 1.
Action start 20:12:50: PublishFeatures.
Action ended 20:12:50: PublishFeatures. Return value 1.
Action start 20:12:50: PublishProduct.
Action ended 20:12:50: PublishProduct. Return value 1.
Action start 20:12:50: InstallExecute.
Action ended 20:12:54: InstallExecute. Return value 1.
Action start 20:12:54: RemoveExistingProducts.
Action ended 20:12:54: RemoveExistingProducts. Return value 1.
Action start 20:12:54: InstallFinalize.
Action ended 20:12:54: InstallFinalize. Return value 1.
Action ended 20:12:54: INSTALL. Return value 1.
MSI (s) (40:58) [20:12:54:867]: Product: Vista Third Party Controls -- Installation completed successfully.

MSI (s) (40:58) [20:12:54:867]: Windows Installer installed the product. Product Name: Vista Third Party Controls. Product Version: 43.0.0. Product Language: 1033. Manufacturer: Vista. Installation success or error status: 0.

=== Logging stopped: 4/26/2017  20:12:54 ===
