=== Logging started: 19-10-2016  14:52:28 ===
Action start 14:52:28: INSTALL.
Action start 14:52:28: AppSearch.
Action ended 14:52:28: AppSearch. Return value 1.
Action start 14:52:28: FindRelatedProducts.
Action ended 14:52:28: FindRelatedProducts. Return value 1.
Action start 14:52:28: LaunchConditions.
Action ended 14:52:28: LaunchConditions. Return value 1.
Action start 14:52:28: CCPSearch.
Action ended 14:52:28: CCPSearch. Return value 1.
Action start 14:52:28: RMCCPSearch.
Action ended 14:52:28: RMCCPSearch. Return value 0.
Action start 14:52:28: ValidateProductID.
Action ended 14:52:28: ValidateProductID. Return value 1.
Action start 14:52:28: DIRCA_TARGETDIR.
Action ended 14:52:28: DIRCA_TARGETDIR. Return value 1.
Action start 14:52:28: CostInitialize.
Action ended 14:52:28: CostInitialize. Return value 1.
Action start 14:52:28: FileCost.
Action ended 14:52:28: FileCost. Return value 1.
Action start 14:52:28: IsolateComponents.
Action ended 14:52:28: IsolateComponents. Return value 1.
Action start 14:52:28: CostFinalize.
Action ended 14:52:28: CostFinalize. Return value 1.
Action start 14:52:28: SetODBCFolders.
Action ended 14:52:28: SetODBCFolders. Return value 1.
Action start 14:52:28: InstallValidate.
Action ended 14:52:28: InstallValidate. Return value 1.
Action start 14:52:28: InstallInitialize.
Action ended 14:52:28: InstallInitialize. Return value 1.
Action start 14:52:28: AllocateRegistrySpace.
Action ended 14:52:28: AllocateRegistrySpace. Return value 1.
Action start 14:52:28: ProcessComponents.
Action ended 14:52:28: ProcessComponents. Return value 1.
Action start 14:52:28: MsiUnpublishAssemblies.
Action ended 14:52:28: MsiUnpublishAssemblies. Return value 1.
Action start 14:52:28: UnpublishComponents.
Action ended 14:52:28: UnpublishComponents. Return value 1.
Action start 14:52:28: UnpublishFeatures.
Action ended 14:52:28: UnpublishFeatures. Return value 1.
Action start 14:52:28: StopServices.
Action ended 14:52:28: StopServices. Return value 1.
Action start 14:52:28: DeleteServices.
Action ended 14:52:28: DeleteServices. Return value 1.
Action start 14:52:28: UnregisterComPlus.
Action ended 14:52:28: UnregisterComPlus. Return value 1.
Action start 14:52:28: SelfUnregModules.
Action ended 14:52:28: SelfUnregModules. Return value 1.
Action start 14:52:28: UnregisterTypeLibraries.
Action ended 14:52:28: UnregisterTypeLibraries. Return value 1.
Action start 14:52:28: RemoveODBC.
Action ended 14:52:28: RemoveODBC. Return value 1.
Action start 14:52:28: UnregisterFonts.
Action ended 14:52:28: UnregisterFonts. Return value 1.
Action start 14:52:28: RemoveRegistryValues.
Action ended 14:52:28: RemoveRegistryValues. Return value 1.
Action start 14:52:28: UnregisterClassInfo.
Action ended 14:52:28: UnregisterClassInfo. Return value 1.
Action start 14:52:28: UnregisterExtensionInfo.
Action ended 14:52:28: UnregisterExtensionInfo. Return value 1.
Action start 14:52:28: UnregisterProgIdInfo.
Action ended 14:52:28: UnregisterProgIdInfo. Return value 1.
Action start 14:52:28: UnregisterMIMEInfo.
Action ended 14:52:28: UnregisterMIMEInfo. Return value 1.
Action start 14:52:28: RemoveIniValues.
Action ended 14:52:28: RemoveIniValues. Return value 1.
Action start 14:52:28: RemoveShortcuts.
Action ended 14:52:28: RemoveShortcuts. Return value 1.
Action start 14:52:28: RemoveEnvironmentStrings.
Action ended 14:52:28: RemoveEnvironmentStrings. Return value 1.
Action start 14:52:28: RemoveDuplicateFiles.
Action ended 14:52:28: RemoveDuplicateFiles. Return value 1.
Action start 14:52:28: RemoveFiles.
Action ended 14:52:28: RemoveFiles. Return value 1.
Action start 14:52:28: RemoveFolders.
Action ended 14:52:28: RemoveFolders. Return value 1.
Action start 14:52:28: CreateFolders.
Action ended 14:52:28: CreateFolders. Return value 1.
Action start 14:52:28: MoveFiles.
Action ended 14:52:28: MoveFiles. Return value 1.
Action start 14:52:28: InstallFiles.
Action ended 14:52:28: InstallFiles. Return value 1.
Action start 14:52:28: PatchFiles.
Action ended 14:52:28: PatchFiles. Return value 1.
Action start 14:52:28: DuplicateFiles.
Action ended 14:52:28: DuplicateFiles. Return value 1.
Action start 14:52:28: BindImage.
Action ended 14:52:28: BindImage. Return value 1.
Action start 14:52:28: CreateShortcuts.
Action ended 14:52:28: CreateShortcuts. Return value 1.
Action start 14:52:28: RegisterClassInfo.
Action ended 14:52:28: RegisterClassInfo. Return value 1.
Action start 14:52:28: RegisterExtensionInfo.
Action ended 14:52:28: RegisterExtensionInfo. Return value 1.
Action start 14:52:28: RegisterProgIdInfo.
Action ended 14:52:28: RegisterProgIdInfo. Return value 1.
Action start 14:52:28: RegisterMIMEInfo.
Action ended 14:52:28: RegisterMIMEInfo. Return value 1.
Action start 14:52:28: WriteRegistryValues.
Action ended 14:52:28: WriteRegistryValues. Return value 1.
Action start 14:52:28: WriteIniValues.
Action ended 14:52:28: WriteIniValues. Return value 1.
Action start 14:52:28: WriteEnvironmentStrings.
Action ended 14:52:28: WriteEnvironmentStrings. Return value 1.
Action start 14:52:28: RegisterFonts.
Action ended 14:52:28: RegisterFonts. Return value 1.
Action start 14:52:28: InstallODBC.
Action ended 14:52:28: InstallODBC. Return value 0.
Action start 14:52:28: RegisterTypeLibraries.
Action ended 14:52:28: RegisterTypeLibraries. Return value 1.
Action start 14:52:28: SelfRegModules.
Action ended 14:52:28: SelfRegModules. Return value 1.
Action start 14:52:28: RegisterComPlus.
Action ended 14:52:28: RegisterComPlus. Return value 1.
Action start 14:52:28: InstallServices.
Action ended 14:52:28: InstallServices. Return value 1.
Action start 14:52:28: StartServices.
Action ended 14:52:28: StartServices. Return value 1.
Action start 14:52:28: RegisterUser.
Action ended 14:52:28: RegisterUser. Return value 1.
Action start 14:52:28: RegisterProduct.
Action ended 14:52:28: RegisterProduct. Return value 1.
Action start 14:52:28: PublishComponents.
Action ended 14:52:28: PublishComponents. Return value 1.
Action start 14:52:28: MsiPublishAssemblies.
Action ended 14:52:28: MsiPublishAssemblies. Return value 1.
Action start 14:52:28: PublishFeatures.
Action ended 14:52:28: PublishFeatures. Return value 1.
Action start 14:52:28: PublishProduct.
Action ended 14:52:28: PublishProduct. Return value 1.
Action start 14:52:28: InstallExecute.
Action ended 14:52:29: InstallExecute. Return value 1.
Action start 14:52:29: RemoveExistingProducts.
Action ended 14:52:29: RemoveExistingProducts. Return value 1.
Action start 14:52:29: InstallFinalize.
Action ended 14:52:29: InstallFinalize. Return value 1.
Action ended 14:52:29: INSTALL. Return value 1.
MSI (s) (90:70) [14:52:29:820]: Product: Vista Third Party Controls -- Installation completed successfully.

MSI (s) (90:70) [14:52:29:821]: Windows Installer installed the product. Product Name: Vista Third Party Controls. Product Version: 43.0.0. Product Language: 1033. Manufacturer: Vista. Installation success or error status: 0.

=== Logging stopped: 19-10-2016  14:52:29 ===
