=== Logging started: 22-11-2016  18:48:28 ===
Action start 18:48:28: INSTALL.
Action start 18:48:28: SystemFolder.246EB7AD_459A_4FA8_83D1_41A46D7634B7.
Action ended 18:48:28: SystemFolder.246EB7AD_459A_4FA8_83D1_41A46D7634B7. Return value 1.
Action start 18:48:28: AppSearch.
Action ended 18:48:28: AppSearch. Return value 1.
Action start 18:48:28: FindRelatedProducts.
Action ended 18:48:28: FindRelatedProducts. Return value 1.
Action start 18:48:28: LaunchConditions.
Action ended 18:48:28: LaunchConditions. Return value 1.
Action start 18:48:28: CCPSearch.
Action ended 18:48:28: CCPSearch. Return value 1.
Action start 18:48:28: RMCCPSearch.
Action ended 18:48:28: RMCCPSearch. Return value 0.
Action start 18:48:28: ValidateProductID.
Action ended 18:48:28: ValidateProductID. Return value 1.
Action start 18:48:28: DIRCA_TARGETDIR.
Action ended 18:48:28: DIRCA_TARGETDIR. Return value 1.
Action start 18:48:28: CostInitialize.
Action ended 18:48:28: CostInitialize. Return value 1.
Action start 18:48:28: FileCost.
Action ended 18:48:28: FileCost. Return value 1.
Action start 18:48:28: IsolateComponents.
Action ended 18:48:28: IsolateComponents. Return value 1.
Action start 18:48:28: CostFinalize.
Action ended 18:48:28: CostFinalize. Return value 1.
Action start 18:48:28: SetODBCFolders.
Action ended 18:48:28: SetODBCFolders. Return value 1.
Action start 18:48:28: InstallValidate.
Action ended 18:48:29: InstallValidate. Return value 1.
Action start 18:48:29: InstallInitialize.
Action ended 18:48:29: InstallInitialize. Return value 1.
Action start 18:48:29: AllocateRegistrySpace.
Action ended 18:48:29: AllocateRegistrySpace. Return value 1.
Action start 18:48:29: ProcessComponents.
Action ended 18:48:30: ProcessComponents. Return value 1.
Action start 18:48:30: MsiUnpublishAssemblies.
Action ended 18:48:30: MsiUnpublishAssemblies. Return value 1.
Action start 18:48:30: UnpublishComponents.
Action ended 18:48:30: UnpublishComponents. Return value 1.
Action start 18:48:30: UnpublishFeatures.
Action ended 18:48:30: UnpublishFeatures. Return value 1.
Action start 18:48:30: StopServices.
Action ended 18:48:30: StopServices. Return value 1.
Action start 18:48:30: DeleteServices.
Action ended 18:48:30: DeleteServices. Return value 1.
Action start 18:48:30: UnregisterComPlus.
Action ended 18:48:30: UnregisterComPlus. Return value 1.
Action start 18:48:30: SelfUnregModules.
Action ended 18:48:30: SelfUnregModules. Return value 1.
Action start 18:48:30: UnregisterTypeLibraries.
Action ended 18:48:30: UnregisterTypeLibraries. Return value 1.
Action start 18:48:30: RemoveODBC.
Action ended 18:48:30: RemoveODBC. Return value 1.
Action start 18:48:30: UnregisterFonts.
Action ended 18:48:30: UnregisterFonts. Return value 1.
Action start 18:48:30: RemoveRegistryValues.
Action ended 18:48:30: RemoveRegistryValues. Return value 1.
Action start 18:48:30: UnregisterClassInfo.
Action ended 18:48:30: UnregisterClassInfo. Return value 1.
Action start 18:48:30: UnregisterExtensionInfo.
Action ended 18:48:30: UnregisterExtensionInfo. Return value 1.
Action start 18:48:30: UnregisterProgIdInfo.
Action ended 18:48:30: UnregisterProgIdInfo. Return value 1.
Action start 18:48:30: UnregisterMIMEInfo.
Action ended 18:48:30: UnregisterMIMEInfo. Return value 1.
Action start 18:48:30: RemoveIniValues.
Action ended 18:48:30: RemoveIniValues. Return value 1.
Action start 18:48:30: RemoveShortcuts.
Action ended 18:48:30: RemoveShortcuts. Return value 1.
Action start 18:48:30: RemoveEnvironmentStrings.
Action ended 18:48:30: RemoveEnvironmentStrings. Return value 1.
Action start 18:48:30: RemoveDuplicateFiles.
Action ended 18:48:30: RemoveDuplicateFiles. Return value 1.
Action start 18:48:30: RemoveFiles.
Action ended 18:48:30: RemoveFiles. Return value 1.
Action start 18:48:30: RemoveFolders.
Action ended 18:48:30: RemoveFolders. Return value 1.
Action start 18:48:30: CreateFolders.
Action ended 18:48:30: CreateFolders. Return value 1.
Action start 18:48:30: MoveFiles.
Action ended 18:48:30: MoveFiles. Return value 1.
Action start 18:48:30: InstallFiles.
Action ended 18:48:30: InstallFiles. Return value 1.
Action start 18:48:30: PatchFiles.
Action ended 18:48:30: PatchFiles. Return value 1.
Action start 18:48:30: DuplicateFiles.
Action ended 18:48:30: DuplicateFiles. Return value 1.
Action start 18:48:30: BindImage.
Action ended 18:48:30: BindImage. Return value 1.
Action start 18:48:30: CreateShortcuts.
Action ended 18:48:30: CreateShortcuts. Return value 1.
Action start 18:48:30: RegisterClassInfo.
Action ended 18:48:30: RegisterClassInfo. Return value 1.
Action start 18:48:30: RegisterExtensionInfo.
Action ended 18:48:30: RegisterExtensionInfo. Return value 1.
Action start 18:48:30: RegisterProgIdInfo.
Action ended 18:48:30: RegisterProgIdInfo. Return value 1.
Action start 18:48:30: RegisterMIMEInfo.
Action ended 18:48:30: RegisterMIMEInfo. Return value 1.
Action start 18:48:30: WriteRegistryValues.
Action ended 18:48:31: WriteRegistryValues. Return value 1.
Action start 18:48:31: WriteIniValues.
Action ended 18:48:31: WriteIniValues. Return value 1.
Action start 18:48:31: WriteEnvironmentStrings.
Action ended 18:48:31: WriteEnvironmentStrings. Return value 1.
Action start 18:48:31: RegisterFonts.
Action ended 18:48:31: RegisterFonts. Return value 1.
Action start 18:48:31: InstallODBC.
Action ended 18:48:31: InstallODBC. Return value 0.
Action start 18:48:31: RegisterTypeLibraries.
Action ended 18:48:31: RegisterTypeLibraries. Return value 1.
Action start 18:48:31: SelfRegModules.
Action ended 18:48:31: SelfRegModules. Return value 1.
Action start 18:48:31: RegisterComPlus.
Action ended 18:48:31: RegisterComPlus. Return value 1.
Action start 18:48:31: InstallServices.
Action ended 18:48:31: InstallServices. Return value 1.
Action start 18:48:31: StartServices.
Action ended 18:48:31: StartServices. Return value 1.
Action start 18:48:31: RegisterUser.
Action ended 18:48:31: RegisterUser. Return value 1.
Action start 18:48:31: RegisterProduct.
Action ended 18:48:31: RegisterProduct. Return value 1.
Action start 18:48:31: PublishComponents.
Action ended 18:48:31: PublishComponents. Return value 1.
Action start 18:48:31: MsiPublishAssemblies.
Action ended 18:48:31: MsiPublishAssemblies. Return value 1.
Action start 18:48:31: PublishFeatures.
Action ended 18:48:31: PublishFeatures. Return value 1.
Action start 18:48:31: PublishProduct.
Action ended 18:48:31: PublishProduct. Return value 1.
Action start 18:48:31: InstallExecute.
Action ended 18:48:42: InstallExecute. Return value 1.
Action start 18:48:42: RemoveExistingProducts.
Action ended 18:48:42: RemoveExistingProducts. Return value 1.
Action start 18:48:43: InstallFinalize.
Action ended 18:48:43: InstallFinalize. Return value 1.
Action ended 18:48:43: INSTALL. Return value 1.
=== Logging stopped: 22-11-2016  18:48:43 ===
MSI (s) (04:CC) [18:48:43:227]: Product: Vista - Microsoft Components -- Installation completed successfully.

MSI (s) (04:CC) [18:48:43:227]: Windows Installer installed the product. Product Name: Vista - Microsoft Components. Product Version: 43.0.0. Product Language: 1033. Manufacturer: Vista. Installation success or error status: 0.

