=== Logging started: 18/11/2016  17:19:47 ===
Action start 17:19:47: INSTALL.
Action start 17:19:47: AppSearch.
Action ended 17:19:47: AppSearch. Return value 1.
Action start 17:19:47: FindRelatedProducts.
Action ended 17:19:47: FindRelatedProducts. Return value 1.
Action start 17:19:47: LaunchConditions.
Action ended 17:19:47: LaunchConditions. Return value 1.
Action start 17:19:47: CCPSearch.
Action ended 17:19:47: CCPSearch. Return value 1.
Action start 17:19:47: RMCCPSearch.
Action ended 17:19:47: RMCCPSearch. Return value 0.
Action start 17:19:47: ValidateProductID.
Action ended 17:19:47: ValidateProductID. Return value 1.
Action start 17:19:47: DIRCA_TARGETDIR.
Action ended 17:19:47: DIRCA_TARGETDIR. Return value 1.
Action start 17:19:47: CostInitialize.
Action ended 17:19:47: CostInitialize. Return value 1.
Action start 17:19:47: FileCost.
Action ended 17:19:47: FileCost. Return value 1.
Action start 17:19:47: IsolateComponents.
Action ended 17:19:47: IsolateComponents. Return value 1.
Action start 17:19:47: CostFinalize.
Action ended 17:19:47: CostFinalize. Return value 1.
Action start 17:19:47: SetODBCFolders.
Action ended 17:19:47: SetODBCFolders. Return value 1.
Action start 17:19:47: InstallValidate.
Action ended 17:19:48: InstallValidate. Return value 1.
Action start 17:19:48: InstallInitialize.
Action ended 17:19:48: InstallInitialize. Return value 1.
Action start 17:19:48: AllocateRegistrySpace.
Action ended 17:19:48: AllocateRegistrySpace. Return value 1.
Action start 17:19:48: ProcessComponents.
Action ended 17:19:48: ProcessComponents. Return value 1.
Action start 17:19:48: MsiUnpublishAssemblies.
Action ended 17:19:48: MsiUnpublishAssemblies. Return value 1.
Action start 17:19:48: UnpublishComponents.
Action ended 17:19:48: UnpublishComponents. Return value 1.
Action start 17:19:48: UnpublishFeatures.
Action ended 17:19:48: UnpublishFeatures. Return value 1.
Action start 17:19:48: StopServices.
Action ended 17:19:48: StopServices. Return value 1.
Action start 17:19:48: DeleteServices.
Action ended 17:19:48: DeleteServices. Return value 1.
Action start 17:19:48: UnregisterComPlus.
Action ended 17:19:48: UnregisterComPlus. Return value 1.
Action start 17:19:48: SelfUnregModules.
Action ended 17:19:48: SelfUnregModules. Return value 1.
Action start 17:19:48: UnregisterTypeLibraries.
Action ended 17:19:48: UnregisterTypeLibraries. Return value 1.
Action start 17:19:48: RemoveODBC.
Action ended 17:19:48: RemoveODBC. Return value 1.
Action start 17:19:48: UnregisterFonts.
Action ended 17:19:48: UnregisterFonts. Return value 1.
Action start 17:19:48: RemoveRegistryValues.
Action ended 17:19:48: RemoveRegistryValues. Return value 1.
Action start 17:19:48: UnregisterClassInfo.
Action ended 17:19:48: UnregisterClassInfo. Return value 1.
Action start 17:19:48: UnregisterExtensionInfo.
Action ended 17:19:48: UnregisterExtensionInfo. Return value 1.
Action start 17:19:48: UnregisterProgIdInfo.
Action ended 17:19:48: UnregisterProgIdInfo. Return value 1.
Action start 17:19:48: UnregisterMIMEInfo.
Action ended 17:19:48: UnregisterMIMEInfo. Return value 1.
Action start 17:19:48: RemoveIniValues.
Action ended 17:19:48: RemoveIniValues. Return value 1.
Action start 17:19:48: RemoveShortcuts.
Action ended 17:19:48: RemoveShortcuts. Return value 1.
Action start 17:19:48: RemoveEnvironmentStrings.
Action ended 17:19:48: RemoveEnvironmentStrings. Return value 1.
Action start 17:19:48: RemoveDuplicateFiles.
Action ended 17:19:48: RemoveDuplicateFiles. Return value 1.
Action start 17:19:48: RemoveFiles.
Action ended 17:19:48: RemoveFiles. Return value 1.
Action start 17:19:48: RemoveFolders.
Action ended 17:19:48: RemoveFolders. Return value 1.
Action start 17:19:48: CreateFolders.
Action ended 17:19:48: CreateFolders. Return value 1.
Action start 17:19:48: MoveFiles.
Action ended 17:19:48: MoveFiles. Return value 1.
Action start 17:19:48: InstallFiles.
Action ended 17:19:48: InstallFiles. Return value 1.
Action start 17:19:48: PatchFiles.
Action ended 17:19:48: PatchFiles. Return value 1.
Action start 17:19:48: DuplicateFiles.
Action ended 17:19:48: DuplicateFiles. Return value 1.
Action start 17:19:48: BindImage.
Action ended 17:19:48: BindImage. Return value 1.
Action start 17:19:48: CreateShortcuts.
Action ended 17:19:48: CreateShortcuts. Return value 1.
Action start 17:19:48: RegisterClassInfo.
Action ended 17:19:48: RegisterClassInfo. Return value 1.
Action start 17:19:48: RegisterExtensionInfo.
Action ended 17:19:48: RegisterExtensionInfo. Return value 1.
Action start 17:19:48: RegisterProgIdInfo.
Action ended 17:19:48: RegisterProgIdInfo. Return value 1.
Action start 17:19:48: RegisterMIMEInfo.
Action ended 17:19:48: RegisterMIMEInfo. Return value 1.
Action start 17:19:48: WriteRegistryValues.
Action ended 17:19:48: WriteRegistryValues. Return value 1.
Action start 17:19:48: WriteIniValues.
Action ended 17:19:48: WriteIniValues. Return value 1.
Action start 17:19:48: WriteEnvironmentStrings.
Action ended 17:19:48: WriteEnvironmentStrings. Return value 1.
Action start 17:19:48: RegisterFonts.
Action ended 17:19:48: RegisterFonts. Return value 1.
Action start 17:19:48: InstallODBC.
Action ended 17:19:48: InstallODBC. Return value 0.
Action start 17:19:48: RegisterTypeLibraries.
Action ended 17:19:48: RegisterTypeLibraries. Return value 1.
Action start 17:19:48: SelfRegModules.
Action ended 17:19:48: SelfRegModules. Return value 1.
Action start 17:19:48: RegisterComPlus.
Action ended 17:19:48: RegisterComPlus. Return value 1.
Action start 17:19:48: InstallServices.
Action ended 17:19:48: InstallServices. Return value 1.
Action start 17:19:48: StartServices.
Action ended 17:19:48: StartServices. Return value 1.
Action start 17:19:48: RegisterUser.
Action ended 17:19:48: RegisterUser. Return value 1.
Action start 17:19:48: RegisterProduct.
Action ended 17:19:48: RegisterProduct. Return value 1.
Action start 17:19:48: PublishComponents.
Action ended 17:19:48: PublishComponents. Return value 1.
Action start 17:19:48: MsiPublishAssemblies.
Action ended 17:19:48: MsiPublishAssemblies. Return value 1.
Action start 17:19:48: PublishFeatures.
Action ended 17:19:48: PublishFeatures. Return value 1.
Action start 17:19:48: PublishProduct.
Action ended 17:19:48: PublishProduct. Return value 1.
Action start 17:19:48: InstallExecute.
Action ended 17:19:57: InstallExecute. Return value 1.
Action start 17:19:57: RemoveExistingProducts.
Action ended 17:19:57: RemoveExistingProducts. Return value 1.
Action start 17:19:57: InstallFinalize.
Action ended 17:19:57: InstallFinalize. Return value 1.
Action ended 17:19:57: INSTALL. Return value 1.
MSI (s) (A4:78) [17:19:57:524]: Product: Vista Third Party Controls -- Installation completed successfully.

MSI (s) (A4:78) [17:19:57:524]: Windows Installer installed the product. Product Name: Vista Third Party Controls. Product Version: 43.0.0. Product Language: 1033. Manufacturer: Vista. Installation success or error status: 0.

=== Logging stopped: 18/11/2016  17:19:57 ===
