=== Logging started: 05/11/2016  15:32:36 ===
Action start 15:32:36: INSTALL.
Action start 15:32:36: WindowsFolder.A95D0BB4_0582_442D_B456_D295EAEB7628.
Action ended 15:32:36: WindowsFolder.A95D0BB4_0582_442D_B456_D295EAEB7628. Return value 1.
Action start 15:32:36: SystemFolder.A95D0BB4_0582_442D_B456_D295EAEB7628.
Action ended 15:32:36: SystemFolder.A95D0BB4_0582_442D_B456_D295EAEB7628. Return value 1.
Action start 15:32:36: CommonFilesFolder.A95D0BB4_0582_442D_B456_D295EAEB7628.
Action ended 15:32:36: CommonFilesFolder.A95D0BB4_0582_442D_B456_D295EAEB7628. Return value 1.
Action start 15:32:36: ProgramFilesFolder.A95D0BB4_0582_442D_B456_D295EAEB7628.
Action ended 15:32:36: ProgramFilesFolder.A95D0BB4_0582_442D_B456_D295EAEB7628. Return value 1.
Action start 15:32:36: ProgramFilesFolder.68FCF676_98BE_41AD_8EC9_E806EEC940CB.
Action ended 15:32:36: ProgramFilesFolder.68FCF676_98BE_41AD_8EC9_E806EEC940CB. Return value 1.
Action start 15:32:36: CommonFilesFolder.68FCF676_98BE_41AD_8EC9_E806EEC940CB.
Action ended 15:32:36: CommonFilesFolder.68FCF676_98BE_41AD_8EC9_E806EEC940CB. Return value 1.
Action start 15:32:36: AppSearch.
Action ended 15:32:36: AppSearch. Return value 1.
Action start 15:32:36: FindRelatedProducts.
Action ended 15:32:36: FindRelatedProducts. Return value 1.
Action start 15:32:36: LaunchConditions.
Action ended 15:32:36: LaunchConditions. Return value 1.
Action start 15:32:36: CCPSearch.
Action ended 15:32:36: CCPSearch. Return value 1.
Action start 15:32:36: RMCCPSearch.
Action ended 15:32:36: RMCCPSearch. Return value 0.
Action start 15:32:36: ValidateProductID.
Action ended 15:32:36: ValidateProductID. Return value 1.
Action start 15:32:36: DetectWantedSoftware.A95D0BB4_0582_442D_B456_D295EAEB7628.
Netscape Server cannot be found.
Searching for file C:\Program Files (x86)\Common Files\System\ole db\msolap.dll
PendingFileRenameOperations is not empty: '\??\C:\Users\VISTA\AppData\Local\Temp\028574~1.EXE'. Must reboot to complete installation.
Action ended 15:32:36: DetectWantedSoftware.A95D0BB4_0582_442D_B456_D295EAEB7628. Return value 1.
Action start 15:32:36: DIRCA_TARGETDIR.
Action ended 15:32:36: DIRCA_TARGETDIR. Return value 1.
Action start 15:32:36: CostInitialize.
Action ended 15:32:36: CostInitialize. Return value 1.
Action start 15:32:36: FileCost.
Action ended 15:32:36: FileCost. Return value 1.
Action start 15:32:36: IsolateComponents.
Action ended 15:32:36: IsolateComponents. Return value 1.
Action start 15:32:36: SetMsdevTemplatePath.A95D0BB4_0582_442D_B456_D295EAEB7628.
Action ended 15:32:36: SetMsdevTemplatePath.A95D0BB4_0582_442D_B456_D295EAEB7628. Return value 1.
Action start 15:32:36: CostFinalize.
Action ended 15:32:37: CostFinalize. Return value 1.
Action start 15:32:37: SetODBCPath.A95D0BB4_0582_442D_B456_D295EAEB7628.
Action ended 15:32:37: SetODBCPath.A95D0BB4_0582_442D_B456_D295EAEB7628. Return value 1.
Action start 15:32:37: SetODBCFolders.
Action ended 15:32:37: SetODBCFolders. Return value 1.
Action start 15:32:37: InstallValidate.
Action ended 15:32:37: InstallValidate. Return value 1.
Action start 15:32:37: GetPid.A95D0BB4_0582_442D_B456_D295EAEB7628.
Action ended 15:32:37: GetPid.A95D0BB4_0582_442D_B456_D295EAEB7628. Return value 1.
Action start 15:32:37: InstallInitialize.
Action ended 15:32:37: InstallInitialize. Return value 1.
Action start 15:32:37: GetWebInfo.A95D0BB4_0582_442D_B456_D295EAEB7628.
SaveTableToIniFile: Table SeagateWebVirtualDir doesn't exist
SaveTableToIniFile: Table SeagateWebMimeType doesn't exist
Couldn't get component state for component "wcsdsapi.dll.413A0FA5_373A_11D4_91AE_009027A76C22".uReturn 1607
DEBUG: Error 2769:  Custom Action GetWebInfo.A95D0BB4_0582_442D_B456_D295EAEB7628 did not close 2 MSIHANDLEs.
The installer has encountered an unexpected error installing this package. This may indicate a problem with this package. The error code is 2769. The arguments are: GetWebInfo.A95D0BB4_0582_442D_B456_D295EAEB7628, 2, 
Action ended 15:32:37: GetWebInfo.A95D0BB4_0582_442D_B456_D295EAEB7628. Return value 1.
Action start 15:32:37: RemoveExistingProducts.
Action ended 15:32:37: RemoveExistingProducts. Return value 1.
Action start 15:32:37: AddProgressTime2.A95D0BB4_0582_442D_B456_D295EAEB7628.
AddTimeToProgressBar: Adding 60 seconds
Action ended 15:32:37: AddProgressTime2.A95D0BB4_0582_442D_B456_D295EAEB7628. Return value 1.
Action start 15:32:37: CommitWindowsSettingsAction.A95D0BB4_0582_442D_B456_D295EAEB7628.
Action ended 15:32:37: CommitWindowsSettingsAction.A95D0BB4_0582_442D_B456_D295EAEB7628. Return value 1.
Action start 15:32:37: AllocateRegistrySpace.
Action ended 15:32:37: AllocateRegistrySpace. Return value 1.
Action start 15:32:37: ProcessComponents.
Action ended 15:32:38: ProcessComponents. Return value 1.
Action start 15:32:38: AddProgressTime1.A95D0BB4_0582_442D_B456_D295EAEB7628.
AddProgressTime1:Started
AddTimeToProgressBar: Adding 170 seconds
Action ended 15:32:38: AddProgressTime1.A95D0BB4_0582_442D_B456_D295EAEB7628. Return value 1.
Action start 15:32:38: MsiUnpublishAssemblies.
Action ended 15:32:38: MsiUnpublishAssemblies. Return value 1.
Action start 15:32:38: UnpublishComponents.
Action ended 15:32:38: UnpublishComponents. Return value 1.
Action start 15:32:38: UnpublishFeatures.
Action ended 15:32:38: UnpublishFeatures. Return value 1.
Action start 15:32:38: StopServices.
Action ended 15:32:38: StopServices. Return value 1.
Action start 15:32:38: UnConfigureWebServices.A95D0BB4_0582_442D_B456_D295EAEB7628.
Action ended 15:32:38: UnConfigureWebServices.A95D0BB4_0582_442D_B456_D295EAEB7628. Return value 1.
Action start 15:32:38: DeleteServices.
Action ended 15:32:38: DeleteServices. Return value 1.
Action start 15:32:38: UnregisterComPlus.
Action ended 15:32:38: UnregisterComPlus. Return value 1.
Action start 15:32:38: SelfUnregModules.
Action ended 15:32:38: SelfUnregModules. Return value 1.
Action start 15:32:38: UnregisterTypeLibraries.
Action ended 15:32:38: UnregisterTypeLibraries. Return value 1.
Action start 15:32:38: RemoveODBC.
Action ended 15:32:38: RemoveODBC. Return value 1.
Action start 15:32:38: UnregisterFonts.
Action ended 15:32:38: UnregisterFonts. Return value 1.
Action start 15:32:38: RemoveRegistryValues.
Action ended 15:32:38: RemoveRegistryValues. Return value 1.
Action start 15:32:38: UnregisterClassInfo.
Action ended 15:32:38: UnregisterClassInfo. Return value 1.
Action start 15:32:38: UnregisterExtensionInfo.
Action ended 15:32:38: UnregisterExtensionInfo. Return value 1.
Action start 15:32:38: UnregisterProgIdInfo.
Action ended 15:32:38: UnregisterProgIdInfo. Return value 1.
Action start 15:32:38: UnregisterMIMEInfo.
Action ended 15:32:38: UnregisterMIMEInfo. Return value 1.
Action start 15:32:38: RemoveIniValues.
Action ended 15:32:38: RemoveIniValues. Return value 1.
Action start 15:32:38: RemoveShortcuts.
Action ended 15:32:38: RemoveShortcuts. Return value 1.
Action start 15:32:38: RemoveEnvironmentStrings.
Action ended 15:32:38: RemoveEnvironmentStrings. Return value 1.
Action start 15:32:38: RemoveDuplicateFiles.
Action ended 15:32:38: RemoveDuplicateFiles. Return value 1.
Action start 15:32:38: RemoveFiles.
Action ended 15:32:38: RemoveFiles. Return value 1.
Action start 15:32:38: RemoveFolders.
Action ended 15:32:38: RemoveFolders. Return value 1.
Action start 15:32:38: CreateFolders.
Action ended 15:32:38: CreateFolders. Return value 1.
Action start 15:32:38: MoveFiles.
Action ended 15:32:38: MoveFiles. Return value 1.
Action start 15:32:38: CheckSeagateCondition.A95D0BB4_0582_442D_B456_D295EAEB7628.
Action ended 15:32:38: CheckSeagateCondition.A95D0BB4_0582_442D_B456_D295EAEB7628. Return value 1.
Action start 15:32:38: InstallFiles.
Action ended 15:32:39: InstallFiles. Return value 1.
Action start 15:32:39: PatchFiles.
Action ended 15:32:39: PatchFiles. Return value 1.
Action start 15:32:39: DuplicateFiles.
Action ended 15:32:39: DuplicateFiles. Return value 1.
Action start 15:32:39: BindImage.
Action ended 15:32:39: BindImage. Return value 1.
Action start 15:32:39: CreateInetShortcuts.A95D0BB4_0582_442D_B456_D295EAEB7628.
Action ended 15:32:39: CreateInetShortcuts.A95D0BB4_0582_442D_B456_D295EAEB7628. Return value 1.
Action start 15:32:39: CreateShortcuts.
Action ended 15:32:39: CreateShortcuts. Return value 1.
Action start 15:32:39: ConfigureWebServices.A95D0BB4_0582_442D_B456_D295EAEB7628.
Action ended 15:32:39: ConfigureWebServices.A95D0BB4_0582_442D_B456_D295EAEB7628. Return value 1.
Action start 15:32:39: RegisterClassInfo.
Action ended 15:32:39: RegisterClassInfo. Return value 1.
Action start 15:32:39: RegisterExtensionInfo.
Action ended 15:32:39: RegisterExtensionInfo. Return value 1.
Action start 15:32:39: RegisterProgIdInfo.
Action ended 15:32:39: RegisterProgIdInfo. Return value 1.
Action start 15:32:39: RegisterMIMEInfo.
Action ended 15:32:39: RegisterMIMEInfo. Return value 1.
Action start 15:32:39: FixRegistry.A95D0BB4_0582_442D_B456_D295EAEB7628.
Action ended 15:33:14: FixRegistry.A95D0BB4_0582_442D_B456_D295EAEB7628. Return value 1.
Action start 15:33:14: WriteRegistryValues.
Action ended 15:33:15: WriteRegistryValues. Return value 1.
Action start 15:33:15: WriteIniValues.
Action ended 15:33:15: WriteIniValues. Return value 1.
Action start 15:33:15: WriteEnvironmentStrings.
Action ended 15:33:15: WriteEnvironmentStrings. Return value 1.
Action start 15:33:15: RegisterFonts.
Action ended 15:33:15: RegisterFonts. Return value 1.
Action start 15:33:15: InstallODBC.
Action ended 15:33:15: InstallODBC. Return value 0.
Action start 15:33:15: RegisterTypeLibraries.
Action ended 15:33:15: RegisterTypeLibraries. Return value 1.
Action start 15:33:15: SelfRegModules.
Action ended 15:33:15: SelfRegModules. Return value 1.
Action start 15:33:15: RegisterComPlus.
Action ended 15:33:15: RegisterComPlus. Return value 1.
Action start 15:33:15: RemoveIPService.A95D0BB4_0582_442D_B456_D295EAEB7628.
DEBUG: Error 2769:  Custom Action RemoveIPService.A95D0BB4_0582_442D_B456_D295EAEB7628 did not close 1 MSIHANDLEs.
The installer has encountered an unexpected error installing this package. This may indicate a problem with this package. The error code is 2769. The arguments are: RemoveIPService.A95D0BB4_0582_442D_B456_D295EAEB7628, 1, 
Action ended 15:33:15: RemoveIPService.A95D0BB4_0582_442D_B456_D295EAEB7628. Return value 1.
Action start 15:33:15: AddIPService.A95D0BB4_0582_442D_B456_D295EAEB7628.
DEBUG: Error 2769:  Custom Action AddIPService.A95D0BB4_0582_442D_B456_D295EAEB7628 did not close 1 MSIHANDLEs.
The installer has encountered an unexpected error installing this package. This may indicate a problem with this package. The error code is 2769. The arguments are: AddIPService.A95D0BB4_0582_442D_B456_D295EAEB7628, 1, 
Action ended 15:33:15: AddIPService.A95D0BB4_0582_442D_B456_D295EAEB7628. Return value 1.
Action start 15:33:15: InstallServices.
Action ended 15:33:15: InstallServices. Return value 1.
Action start 15:33:15: QueryService.A95D0BB4_0582_442D_B456_D295EAEB7628.
DEBUG: Error 2769:  Custom Action QueryService.A95D0BB4_0582_442D_B456_D295EAEB7628 did not close 1 MSIHANDLEs.
The installer has encountered an unexpected error installing this package. This may indicate a problem with this package. The error code is 2769. The arguments are: QueryService.A95D0BB4_0582_442D_B456_D295EAEB7628, 1, 
Action ended 15:33:15: QueryService.A95D0BB4_0582_442D_B456_D295EAEB7628. Return value 1.
Action start 15:33:15: FixService.A95D0BB4_0582_442D_B456_D295EAEB7628.
Action ended 15:33:15: FixService.A95D0BB4_0582_442D_B456_D295EAEB7628. Return value 1.
Action start 15:33:15: StartServices.
Action ended 15:33:15: StartServices. Return value 1.
Action start 15:33:15: RegisterUser.
Action ended 15:33:15: RegisterUser. Return value 1.
Action start 15:33:15: RegisterProduct.
Action ended 15:33:15: RegisterProduct. Return value 1.
Action start 15:33:15: PublishComponents.
Action ended 15:33:15: PublishComponents. Return value 1.
Action start 15:33:15: MsiPublishAssemblies.
Action ended 15:33:15: MsiPublishAssemblies. Return value 1.
Action start 15:33:15: PublishFeatures.
Action ended 15:33:15: PublishFeatures. Return value 1.
Action start 15:33:15: PublishProduct.
Action ended 15:33:15: PublishProduct. Return value 1.
Action start 15:33:15: InstallFinalize.
No web components to uninstall
UseProgressTime: 30 seconds
UseProgressTime: 60 seconds
Action ended 15:33:28: InstallFinalize. Return value 1.
Action ended 15:33:28: INSTALL. Return value 1.
MSI (s) (E4:D0) [15:33:28:746]: Product: Vista - Crystal Reports 9 Components -- Installation completed successfully.

MSI (s) (E4:D0) [15:33:28:750]: Windows Installer installed the product. Product Name: Vista - Crystal Reports 9 Components. Product Version: 30.0.5. Product Language: 1033. Manufacturer: Vista. Installation success or error status: 0.

=== Logging stopped: 05/11/2016  15:33:28 ===
