=== Logging started: 18/11/2016  17:20:23 ===
Action start 17:20:23: INSTALL.
Action start 17:20:23: WindowsFolder.A95D0BB4_0582_442D_B456_D295EAEB7628.
Action ended 17:20:23: WindowsFolder.A95D0BB4_0582_442D_B456_D295EAEB7628. Return value 1.
Action start 17:20:23: SystemFolder.A95D0BB4_0582_442D_B456_D295EAEB7628.
Action ended 17:20:23: SystemFolder.A95D0BB4_0582_442D_B456_D295EAEB7628. Return value 1.
Action start 17:20:23: CommonFilesFolder.A95D0BB4_0582_442D_B456_D295EAEB7628.
Action ended 17:20:23: CommonFilesFolder.A95D0BB4_0582_442D_B456_D295EAEB7628. Return value 1.
Action start 17:20:23: ProgramFilesFolder.A95D0BB4_0582_442D_B456_D295EAEB7628.
Action ended 17:20:23: ProgramFilesFolder.A95D0BB4_0582_442D_B456_D295EAEB7628. Return value 1.
Action start 17:20:23: ProgramFilesFolder.68FCF676_98BE_41AD_8EC9_E806EEC940CB.
Action ended 17:20:23: ProgramFilesFolder.68FCF676_98BE_41AD_8EC9_E806EEC940CB. Return value 1.
Action start 17:20:23: CommonFilesFolder.68FCF676_98BE_41AD_8EC9_E806EEC940CB.
Action ended 17:20:23: CommonFilesFolder.68FCF676_98BE_41AD_8EC9_E806EEC940CB. Return value 1.
Action start 17:20:23: AppSearch.
Action ended 17:20:23: AppSearch. Return value 1.
Action start 17:20:23: FindRelatedProducts.
Action ended 17:20:23: FindRelatedProducts. Return value 1.
Action start 17:20:23: LaunchConditions.
Action ended 17:20:23: LaunchConditions. Return value 1.
Action start 17:20:23: CCPSearch.
Action ended 17:20:23: CCPSearch. Return value 1.
Action start 17:20:23: RMCCPSearch.
Action ended 17:20:23: RMCCPSearch. Return value 0.
Action start 17:20:23: ValidateProductID.
Action ended 17:20:23: ValidateProductID. Return value 1.
Action start 17:20:23: DetectWantedSoftware.A95D0BB4_0582_442D_B456_D295EAEB7628.
Netscape Server cannot be found.
Searching for file c:\Program Files (x86)\Common Files\System\ole db\msolap.dll
PendingFileRenameOperations is not empty: ''. Must reboot to complete installation.
Action ended 17:20:23: DetectWantedSoftware.A95D0BB4_0582_442D_B456_D295EAEB7628. Return value 1.
Action start 17:20:23: DIRCA_TARGETDIR.
Action ended 17:20:23: DIRCA_TARGETDIR. Return value 1.
Action start 17:20:23: CostInitialize.
Action ended 17:20:23: CostInitialize. Return value 1.
Action start 17:20:23: FileCost.
Action ended 17:20:23: FileCost. Return value 1.
Action start 17:20:23: IsolateComponents.
Action ended 17:20:23: IsolateComponents. Return value 1.
Action start 17:20:23: SetMsdevTemplatePath.A95D0BB4_0582_442D_B456_D295EAEB7628.
Action ended 17:20:23: SetMsdevTemplatePath.A95D0BB4_0582_442D_B456_D295EAEB7628. Return value 1.
Action start 17:20:23: CostFinalize.
Action ended 17:20:23: CostFinalize. Return value 1.
Action start 17:20:23: SetODBCPath.A95D0BB4_0582_442D_B456_D295EAEB7628.
Action ended 17:20:23: SetODBCPath.A95D0BB4_0582_442D_B456_D295EAEB7628. Return value 1.
Action start 17:20:23: SetODBCFolders.
Action ended 17:20:23: SetODBCFolders. Return value 1.
Action start 17:20:23: InstallValidate.
Action ended 17:20:24: InstallValidate. Return value 1.
Action start 17:20:24: GetPid.A95D0BB4_0582_442D_B456_D295EAEB7628.
Action ended 17:20:24: GetPid.A95D0BB4_0582_442D_B456_D295EAEB7628. Return value 1.
Action start 17:20:24: InstallInitialize.
Action ended 17:20:24: InstallInitialize. Return value 1.
Action start 17:20:24: GetWebInfo.A95D0BB4_0582_442D_B456_D295EAEB7628.
SaveTableToIniFile: Table SeagateWebVirtualDir doesn't exist
SaveTableToIniFile: Table SeagateWebMimeType doesn't exist
Couldn't get component state for component "wcsdsapi.dll.413A0FA5_373A_11D4_91AE_009027A76C22".uReturn 1607
DEBUG: Error 2769:  Custom Action GetWebInfo.A95D0BB4_0582_442D_B456_D295EAEB7628 did not close 2 MSIHANDLEs.
The installer has encountered an unexpected error installing this package. This may indicate a problem with this package. The error code is 2769. The arguments are: GetWebInfo.A95D0BB4_0582_442D_B456_D295EAEB7628, 2, 
Action ended 17:20:24: GetWebInfo.A95D0BB4_0582_442D_B456_D295EAEB7628. Return value 1.
Action start 17:20:24: RemoveExistingProducts.
Action ended 17:20:24: RemoveExistingProducts. Return value 1.
Action start 17:20:24: AddProgressTime2.A95D0BB4_0582_442D_B456_D295EAEB7628.
AddTimeToProgressBar: Adding 60 seconds
Action ended 17:20:24: AddProgressTime2.A95D0BB4_0582_442D_B456_D295EAEB7628. Return value 1.
Action start 17:20:24: CommitWindowsSettingsAction.A95D0BB4_0582_442D_B456_D295EAEB7628.
Action ended 17:20:24: CommitWindowsSettingsAction.A95D0BB4_0582_442D_B456_D295EAEB7628. Return value 1.
Action start 17:20:24: AllocateRegistrySpace.
Action ended 17:20:24: AllocateRegistrySpace. Return value 1.
Action start 17:20:24: ProcessComponents.
Action ended 17:20:24: ProcessComponents. Return value 1.
Action start 17:20:24: AddProgressTime1.A95D0BB4_0582_442D_B456_D295EAEB7628.
AddProgressTime1:Started
AddTimeToProgressBar: Adding 170 seconds
Action ended 17:20:24: AddProgressTime1.A95D0BB4_0582_442D_B456_D295EAEB7628. Return value 1.
Action start 17:20:24: MsiUnpublishAssemblies.
Action ended 17:20:24: MsiUnpublishAssemblies. Return value 1.
Action start 17:20:24: UnpublishComponents.
Action ended 17:20:24: UnpublishComponents. Return value 1.
Action start 17:20:24: UnpublishFeatures.
Action ended 17:20:24: UnpublishFeatures. Return value 1.
Action start 17:20:24: StopServices.
Action ended 17:20:24: StopServices. Return value 1.
Action start 17:20:24: UnConfigureWebServices.A95D0BB4_0582_442D_B456_D295EAEB7628.
Action ended 17:20:24: UnConfigureWebServices.A95D0BB4_0582_442D_B456_D295EAEB7628. Return value 1.
Action start 17:20:24: DeleteServices.
Action ended 17:20:24: DeleteServices. Return value 1.
Action start 17:20:24: UnregisterComPlus.
Action ended 17:20:24: UnregisterComPlus. Return value 1.
Action start 17:20:24: SelfUnregModules.
Action ended 17:20:24: SelfUnregModules. Return value 1.
Action start 17:20:24: UnregisterTypeLibraries.
Action ended 17:20:24: UnregisterTypeLibraries. Return value 1.
Action start 17:20:24: RemoveODBC.
Action ended 17:20:24: RemoveODBC. Return value 1.
Action start 17:20:24: UnregisterFonts.
Action ended 17:20:24: UnregisterFonts. Return value 1.
Action start 17:20:24: RemoveRegistryValues.
Action ended 17:20:24: RemoveRegistryValues. Return value 1.
Action start 17:20:24: UnregisterClassInfo.
Action ended 17:20:24: UnregisterClassInfo. Return value 1.
Action start 17:20:24: UnregisterExtensionInfo.
Action ended 17:20:24: UnregisterExtensionInfo. Return value 1.
Action start 17:20:24: UnregisterProgIdInfo.
Action ended 17:20:24: UnregisterProgIdInfo. Return value 1.
Action start 17:20:24: UnregisterMIMEInfo.
Action ended 17:20:24: UnregisterMIMEInfo. Return value 1.
Action start 17:20:24: RemoveIniValues.
Action ended 17:20:24: RemoveIniValues. Return value 1.
Action start 17:20:24: RemoveShortcuts.
Action ended 17:20:24: RemoveShortcuts. Return value 1.
Action start 17:20:24: RemoveEnvironmentStrings.
Action ended 17:20:24: RemoveEnvironmentStrings. Return value 1.
Action start 17:20:24: RemoveDuplicateFiles.
Action ended 17:20:24: RemoveDuplicateFiles. Return value 1.
Action start 17:20:24: RemoveFiles.
Action ended 17:20:24: RemoveFiles. Return value 1.
Action start 17:20:24: RemoveFolders.
Action ended 17:20:24: RemoveFolders. Return value 1.
Action start 17:20:24: CreateFolders.
Action ended 17:20:24: CreateFolders. Return value 1.
Action start 17:20:24: MoveFiles.
Action ended 17:20:24: MoveFiles. Return value 1.
Action start 17:20:24: CheckSeagateCondition.A95D0BB4_0582_442D_B456_D295EAEB7628.
Action ended 17:20:25: CheckSeagateCondition.A95D0BB4_0582_442D_B456_D295EAEB7628. Return value 1.
Action start 17:20:25: InstallFiles.
Action ended 17:20:25: InstallFiles. Return value 1.
Action start 17:20:25: PatchFiles.
Action ended 17:20:25: PatchFiles. Return value 1.
Action start 17:20:25: DuplicateFiles.
Action ended 17:20:25: DuplicateFiles. Return value 1.
Action start 17:20:25: BindImage.
Action ended 17:20:25: BindImage. Return value 1.
Action start 17:20:25: CreateInetShortcuts.A95D0BB4_0582_442D_B456_D295EAEB7628.
Action ended 17:20:25: CreateInetShortcuts.A95D0BB4_0582_442D_B456_D295EAEB7628. Return value 1.
Action start 17:20:25: CreateShortcuts.
Action ended 17:20:25: CreateShortcuts. Return value 1.
Action start 17:20:25: ConfigureWebServices.A95D0BB4_0582_442D_B456_D295EAEB7628.
Action ended 17:20:25: ConfigureWebServices.A95D0BB4_0582_442D_B456_D295EAEB7628. Return value 1.
Action start 17:20:25: RegisterClassInfo.
Action ended 17:20:25: RegisterClassInfo. Return value 1.
Action start 17:20:25: RegisterExtensionInfo.
Action ended 17:20:25: RegisterExtensionInfo. Return value 1.
Action start 17:20:25: RegisterProgIdInfo.
Action ended 17:20:25: RegisterProgIdInfo. Return value 1.
Action start 17:20:25: RegisterMIMEInfo.
Action ended 17:20:25: RegisterMIMEInfo. Return value 1.
Action start 17:20:25: FixRegistry.A95D0BB4_0582_442D_B456_D295EAEB7628.
Action ended 17:21:13: FixRegistry.A95D0BB4_0582_442D_B456_D295EAEB7628. Return value 1.
Action start 17:21:13: WriteRegistryValues.
Action ended 17:21:14: WriteRegistryValues. Return value 1.
Action start 17:21:14: WriteIniValues.
Action ended 17:21:14: WriteIniValues. Return value 1.
Action start 17:21:14: WriteEnvironmentStrings.
Action ended 17:21:14: WriteEnvironmentStrings. Return value 1.
Action start 17:21:14: RegisterFonts.
Action ended 17:21:14: RegisterFonts. Return value 1.
Action start 17:21:14: InstallODBC.
Action ended 17:21:14: InstallODBC. Return value 0.
Action start 17:21:14: RegisterTypeLibraries.
Action ended 17:21:14: RegisterTypeLibraries. Return value 1.
Action start 17:21:14: SelfRegModules.
Action ended 17:21:14: SelfRegModules. Return value 1.
Action start 17:21:14: RegisterComPlus.
Action ended 17:21:14: RegisterComPlus. Return value 1.
Action start 17:21:14: RemoveIPService.A95D0BB4_0582_442D_B456_D295EAEB7628.
DEBUG: Error 2769:  Custom Action RemoveIPService.A95D0BB4_0582_442D_B456_D295EAEB7628 did not close 1 MSIHANDLEs.
The installer has encountered an unexpected error installing this package. This may indicate a problem with this package. The error code is 2769. The arguments are: RemoveIPService.A95D0BB4_0582_442D_B456_D295EAEB7628, 1, 
Action ended 17:21:14: RemoveIPService.A95D0BB4_0582_442D_B456_D295EAEB7628. Return value 1.
Action start 17:21:14: AddIPService.A95D0BB4_0582_442D_B456_D295EAEB7628.
DEBUG: Error 2769:  Custom Action AddIPService.A95D0BB4_0582_442D_B456_D295EAEB7628 did not close 1 MSIHANDLEs.
The installer has encountered an unexpected error installing this package. This may indicate a problem with this package. The error code is 2769. The arguments are: AddIPService.A95D0BB4_0582_442D_B456_D295EAEB7628, 1, 
Action ended 17:21:14: AddIPService.A95D0BB4_0582_442D_B456_D295EAEB7628. Return value 1.
Action start 17:21:14: InstallServices.
Action ended 17:21:14: InstallServices. Return value 1.
Action start 17:21:14: QueryService.A95D0BB4_0582_442D_B456_D295EAEB7628.
DEBUG: Error 2769:  Custom Action QueryService.A95D0BB4_0582_442D_B456_D295EAEB7628 did not close 1 MSIHANDLEs.
The installer has encountered an unexpected error installing this package. This may indicate a problem with this package. The error code is 2769. The arguments are: QueryService.A95D0BB4_0582_442D_B456_D295EAEB7628, 1, 
Action ended 17:21:14: QueryService.A95D0BB4_0582_442D_B456_D295EAEB7628. Return value 1.
Action start 17:21:14: FixService.A95D0BB4_0582_442D_B456_D295EAEB7628.
Action ended 17:21:14: FixService.A95D0BB4_0582_442D_B456_D295EAEB7628. Return value 1.
Action start 17:21:14: StartServices.
Action ended 17:21:14: StartServices. Return value 1.
Action start 17:21:14: RegisterUser.
Action ended 17:21:14: RegisterUser. Return value 1.
Action start 17:21:14: RegisterProduct.
Action ended 17:21:14: RegisterProduct. Return value 1.
Action start 17:21:14: PublishComponents.
Action ended 17:21:14: PublishComponents. Return value 1.
Action start 17:21:14: MsiPublishAssemblies.
Action ended 17:21:14: MsiPublishAssemblies. Return value 1.
Action start 17:21:14: PublishFeatures.
Action ended 17:21:14: PublishFeatures. Return value 1.
Action start 17:21:14: PublishProduct.
Action ended 17:21:15: PublishProduct. Return value 1.
Action start 17:21:15: InstallFinalize.
No web components to uninstall
UseProgressTime: 30 seconds
UseProgressTime: 60 seconds
Action ended 17:21:34: InstallFinalize. Return value 1.
Action ended 17:21:34: INSTALL. Return value 1.
MSI (s) (A4:C8) [17:21:34:008]: Product: Vista - Crystal Reports 9 Components -- Installation completed successfully.

MSI (s) (A4:C8) [17:21:34:008]: Windows Installer installed the product. Product Name: Vista - Crystal Reports 9 Components. Product Version: 30.0.5. Product Language: 1033. Manufacturer: Vista. Installation success or error status: 0.

=== Logging stopped: 18/11/2016  17:21:34 ===
