=== Logging started: 21/10/2016  08:51:07 ===
Action start 08:51:07: INSTALL.
Action start 08:51:07: SystemFolder.246EB7AD_459A_4FA8_83D1_41A46D7634B7.
Action ended 08:51:07: SystemFolder.246EB7AD_459A_4FA8_83D1_41A46D7634B7. Return value 1.
Action start 08:51:07: AppSearch.
Action ended 08:51:07: AppSearch. Return value 1.
Action start 08:51:07: FindRelatedProducts.
Action ended 08:51:07: FindRelatedProducts. Return value 0.
Action start 08:51:07: ValidateProductID.
Action ended 08:51:07: ValidateProductID. Return value 1.
Action start 08:51:07: DIRCA_TARGETDIR.
Action ended 08:51:07: DIRCA_TARGETDIR. Return value 1.
Action start 08:51:07: CostInitialize.
Action ended 08:51:08: CostInitialize. Return value 1.
Action start 08:51:08: FileCost.
Action ended 08:51:08: FileCost. Return value 1.
Action start 08:51:08: IsolateComponents.
Action ended 08:51:08: IsolateComponents. Return value 1.
Action start 08:51:08: CostFinalize.
Action ended 08:51:08: CostFinalize. Return value 1.
Action start 08:51:08: InstallValidate.
Action ended 08:51:08: InstallValidate. Return value 1.
Action start 08:51:08: InstallInitialize.
Action ended 08:51:08: InstallInitialize. Return value 1.
Action start 08:51:08: ProcessComponents.
Action ended 08:51:08: ProcessComponents. Return value 1.
Action start 08:51:08: MsiUnpublishAssemblies.
Action ended 08:51:08: MsiUnpublishAssemblies. Return value 1.
Action start 08:51:08: UnpublishComponents.
Action ended 08:51:08: UnpublishComponents. Return value 1.
Action start 08:51:08: UnpublishFeatures.
Action ended 08:51:08: UnpublishFeatures. Return value 1.
Action start 08:51:08: StopServices.
Action ended 08:51:08: StopServices. Return value 1.
Action start 08:51:08: DeleteServices.
Action ended 08:51:08: DeleteServices. Return value 1.
Action start 08:51:08: UnregisterComPlus.
Action ended 08:51:08: UnregisterComPlus. Return value 1.
Action start 08:51:08: SelfUnregModules.
Action ended 08:51:08: SelfUnregModules. Return value 1.
Action start 08:51:08: UnregisterTypeLibraries.
Action ended 08:51:08: UnregisterTypeLibraries. Return value 1.
Action start 08:51:08: RemoveODBC.
Action ended 08:51:08: RemoveODBC. Return value 1.
Action start 08:51:08: UnregisterFonts.
Action ended 08:51:08: UnregisterFonts. Return value 1.
Action start 08:51:08: RemoveRegistryValues.
Action ended 08:51:08: RemoveRegistryValues. Return value 1.
Action start 08:51:08: UnregisterClassInfo.
Action ended 08:51:08: UnregisterClassInfo. Return value 1.
Action start 08:51:08: UnregisterExtensionInfo.
Action ended 08:51:08: UnregisterExtensionInfo. Return value 1.
Action start 08:51:08: UnregisterProgIdInfo.
Action ended 08:51:08: UnregisterProgIdInfo. Return value 1.
Action start 08:51:08: UnregisterMIMEInfo.
Action ended 08:51:08: UnregisterMIMEInfo. Return value 1.
Action start 08:51:08: RemoveIniValues.
Action ended 08:51:08: RemoveIniValues. Return value 1.
Action start 08:51:08: RemoveShortcuts.
Action ended 08:51:08: RemoveShortcuts. Return value 1.
Action start 08:51:08: RemoveEnvironmentStrings.
Action ended 08:51:08: RemoveEnvironmentStrings. Return value 1.
Action start 08:51:08: RemoveDuplicateFiles.
Action ended 08:51:08: RemoveDuplicateFiles. Return value 1.
Action start 08:51:08: RemoveFiles.
Action ended 08:51:08: RemoveFiles. Return value 1.
Action start 08:51:08: RemoveFolders.
Action ended 08:51:08: RemoveFolders. Return value 1.
Action start 08:51:08: CreateFolders.
Action ended 08:51:08: CreateFolders. Return value 1.
Action start 08:51:08: MoveFiles.
Action ended 08:51:08: MoveFiles. Return value 1.
Action start 08:51:08: InstallFiles.
Action ended 08:51:08: InstallFiles. Return value 1.
Action start 08:51:08: PatchFiles.
Action ended 08:51:08: PatchFiles. Return value 1.
Action start 08:51:08: DuplicateFiles.
Action ended 08:51:08: DuplicateFiles. Return value 1.
Action start 08:51:08: BindImage.
Action ended 08:51:08: BindImage. Return value 1.
Action start 08:51:08: CreateShortcuts.
Action ended 08:51:08: CreateShortcuts. Return value 1.
Action start 08:51:08: RegisterClassInfo.
Action ended 08:51:08: RegisterClassInfo. Return value 1.
Action start 08:51:08: RegisterExtensionInfo.
Action ended 08:51:08: RegisterExtensionInfo. Return value 1.
Action start 08:51:08: RegisterProgIdInfo.
Action ended 08:51:08: RegisterProgIdInfo. Return value 1.
Action start 08:51:08: RegisterMIMEInfo.
Action ended 08:51:08: RegisterMIMEInfo. Return value 1.
Action start 08:51:09: WriteRegistryValues.
Action ended 08:51:09: WriteRegistryValues. Return value 1.
Action start 08:51:09: WriteIniValues.
Action ended 08:51:09: WriteIniValues. Return value 1.
Action start 08:51:09: WriteEnvironmentStrings.
Action ended 08:51:09: WriteEnvironmentStrings. Return value 1.
Action start 08:51:09: RegisterFonts.
Action ended 08:51:09: RegisterFonts. Return value 1.
Action start 08:51:09: InstallODBC.
Action ended 08:51:09: InstallODBC. Return value 0.
Action start 08:51:09: RegisterTypeLibraries.
Action ended 08:51:09: RegisterTypeLibraries. Return value 1.
Action start 08:51:09: SelfRegModules.
Action ended 08:51:09: SelfRegModules. Return value 1.
Action start 08:51:09: RegisterComPlus.
Action ended 08:51:09: RegisterComPlus. Return value 1.
Action start 08:51:09: InstallServices.
Action ended 08:51:09: InstallServices. Return value 1.
Action start 08:51:09: StartServices.
Action ended 08:51:09: StartServices. Return value 1.
Action start 08:51:09: RegisterUser.
Action ended 08:51:09: RegisterUser. Return value 0.
Action start 08:51:09: RegisterProduct.
Action ended 08:51:09: RegisterProduct. Return value 1.
Action start 08:51:09: PublishComponents.
Action ended 08:51:09: PublishComponents. Return value 1.
Action start 08:51:09: MsiPublishAssemblies.
Action ended 08:51:09: MsiPublishAssemblies. Return value 1.
Action start 08:51:09: PublishFeatures.
Action ended 08:51:09: PublishFeatures. Return value 1.
Action start 08:51:09: PublishProduct.
Action ended 08:51:12: PublishProduct. Return value 1.
Action start 08:51:12: InstallExecute.
Action ended 08:51:12: InstallExecute. Return value 1.
Action start 08:51:12: RemoveExistingProducts.
Action ended 08:51:12: RemoveExistingProducts. Return value 0.
Action start 08:51:12: InstallFinalize.
Action ended 08:51:12: InstallFinalize. Return value 1.
Action ended 08:51:12: INSTALL. Return value 1.
MSI (s) (04:4C) [08:51:12:620]: Product: Vista - Microsoft Components -- Configuration completed successfully.

MSI (s) (04:4C) [08:51:12:620]: Windows Installer reconfigured the product. Product Name: Vista - Microsoft Components. Product Version: 43.0.0. Product Language: 1033. Manufacturer: Vista. Reconfiguration success or error status: 0.

=== Logging stopped: 21/10/2016  08:51:12 ===
