=== Logging started: 16/11/2016  16:38:20 ===
Action start 16:38:20: INSTALL.
Action start 16:38:20: SystemFolder.246EB7AD_459A_4FA8_83D1_41A46D7634B7.
Action ended 16:38:20: SystemFolder.246EB7AD_459A_4FA8_83D1_41A46D7634B7. Return value 1.
Action start 16:38:20: AppSearch.
Action ended 16:38:20: AppSearch. Return value 1.
Action start 16:38:20: FindRelatedProducts.
Action ended 16:38:20: FindRelatedProducts. Return value 1.
Action start 16:38:20: LaunchConditions.
Action ended 16:38:20: LaunchConditions. Return value 1.
Action start 16:38:20: CCPSearch.
Action ended 16:38:20: CCPSearch. Return value 1.
Action start 16:38:20: RMCCPSearch.
Action ended 16:38:20: RMCCPSearch. Return value 0.
Action start 16:38:20: ValidateProductID.
Action ended 16:38:20: ValidateProductID. Return value 1.
Action start 16:38:20: DIRCA_TARGETDIR.
Action ended 16:38:20: DIRCA_TARGETDIR. Return value 1.
Action start 16:38:20: CostInitialize.
Action ended 16:38:21: CostInitialize. Return value 1.
Action start 16:38:21: FileCost.
Action ended 16:38:21: FileCost. Return value 1.
Action start 16:38:21: IsolateComponents.
Action ended 16:38:21: IsolateComponents. Return value 1.
Action start 16:38:21: CostFinalize.
Action ended 16:38:21: CostFinalize. Return value 1.
Action start 16:38:21: SetODBCFolders.
Action ended 16:38:21: SetODBCFolders. Return value 1.
Action start 16:38:21: InstallValidate.
Action ended 16:38:22: InstallValidate. Return value 1.
Action start 16:38:22: InstallInitialize.
Action ended 16:38:24: InstallInitialize. Return value 1.
Action start 16:38:24: AllocateRegistrySpace.
Action ended 16:38:24: AllocateRegistrySpace. Return value 1.
Action start 16:38:24: ProcessComponents.
Action ended 16:38:24: ProcessComponents. Return value 1.
Action start 16:38:24: MsiUnpublishAssemblies.
Action ended 16:38:24: MsiUnpublishAssemblies. Return value 1.
Action start 16:38:24: UnpublishComponents.
Action ended 16:38:24: UnpublishComponents. Return value 1.
Action start 16:38:24: UnpublishFeatures.
Action ended 16:38:24: UnpublishFeatures. Return value 1.
Action start 16:38:24: StopServices.
Action ended 16:38:24: StopServices. Return value 1.
Action start 16:38:24: DeleteServices.
Action ended 16:38:24: DeleteServices. Return value 1.
Action start 16:38:24: UnregisterComPlus.
Action ended 16:38:24: UnregisterComPlus. Return value 1.
Action start 16:38:24: SelfUnregModules.
Action ended 16:38:24: SelfUnregModules. Return value 1.
Action start 16:38:24: UnregisterTypeLibraries.
Action ended 16:38:24: UnregisterTypeLibraries. Return value 1.
Action start 16:38:24: RemoveODBC.
Action ended 16:38:24: RemoveODBC. Return value 1.
Action start 16:38:24: UnregisterFonts.
Action ended 16:38:24: UnregisterFonts. Return value 1.
Action start 16:38:24: RemoveRegistryValues.
Action ended 16:38:24: RemoveRegistryValues. Return value 1.
Action start 16:38:24: UnregisterClassInfo.
Action ended 16:38:24: UnregisterClassInfo. Return value 1.
Action start 16:38:24: UnregisterExtensionInfo.
Action ended 16:38:24: UnregisterExtensionInfo. Return value 1.
Action start 16:38:24: UnregisterProgIdInfo.
Action ended 16:38:24: UnregisterProgIdInfo. Return value 1.
Action start 16:38:24: UnregisterMIMEInfo.
Action ended 16:38:24: UnregisterMIMEInfo. Return value 1.
Action start 16:38:24: RemoveIniValues.
Action ended 16:38:24: RemoveIniValues. Return value 1.
Action start 16:38:24: RemoveShortcuts.
Action ended 16:38:24: RemoveShortcuts. Return value 1.
Action start 16:38:24: RemoveEnvironmentStrings.
Action ended 16:38:24: RemoveEnvironmentStrings. Return value 1.
Action start 16:38:24: RemoveDuplicateFiles.
Action ended 16:38:24: RemoveDuplicateFiles. Return value 1.
Action start 16:38:24: RemoveFiles.
Action ended 16:38:25: RemoveFiles. Return value 1.
Action start 16:38:25: RemoveFolders.
Action ended 16:38:25: RemoveFolders. Return value 1.
Action start 16:38:25: CreateFolders.
Action ended 16:38:25: CreateFolders. Return value 1.
Action start 16:38:25: MoveFiles.
Action ended 16:38:25: MoveFiles. Return value 1.
Action start 16:38:25: InstallFiles.
Action ended 16:38:25: InstallFiles. Return value 1.
Action start 16:38:25: PatchFiles.
Action ended 16:38:25: PatchFiles. Return value 1.
Action start 16:38:25: DuplicateFiles.
Action ended 16:38:25: DuplicateFiles. Return value 1.
Action start 16:38:25: BindImage.
Action ended 16:38:25: BindImage. Return value 1.
Action start 16:38:25: CreateShortcuts.
Action ended 16:38:25: CreateShortcuts. Return value 1.
Action start 16:38:25: RegisterClassInfo.
Action ended 16:38:25: RegisterClassInfo. Return value 1.
Action start 16:38:25: RegisterExtensionInfo.
Action ended 16:38:25: RegisterExtensionInfo. Return value 1.
Action start 16:38:25: RegisterProgIdInfo.
Action ended 16:38:25: RegisterProgIdInfo. Return value 1.
Action start 16:38:25: RegisterMIMEInfo.
Action ended 16:38:25: RegisterMIMEInfo. Return value 1.
Action start 16:38:25: WriteRegistryValues.
Action ended 16:38:26: WriteRegistryValues. Return value 1.
Action start 16:38:26: WriteIniValues.
Action ended 16:38:26: WriteIniValues. Return value 1.
Action start 16:38:26: WriteEnvironmentStrings.
Action ended 16:38:26: WriteEnvironmentStrings. Return value 1.
Action start 16:38:26: RegisterFonts.
Action ended 16:38:26: RegisterFonts. Return value 1.
Action start 16:38:26: InstallODBC.
Action ended 16:38:26: InstallODBC. Return value 0.
Action start 16:38:26: RegisterTypeLibraries.
Action ended 16:38:26: RegisterTypeLibraries. Return value 1.
Action start 16:38:26: SelfRegModules.
Action ended 16:38:26: SelfRegModules. Return value 1.
Action start 16:38:26: RegisterComPlus.
Action ended 16:38:26: RegisterComPlus. Return value 1.
Action start 16:38:26: InstallServices.
Action ended 16:38:26: InstallServices. Return value 1.
Action start 16:38:26: StartServices.
Action ended 16:38:26: StartServices. Return value 1.
Action start 16:38:26: RegisterUser.
Action ended 16:38:26: RegisterUser. Return value 1.
Action start 16:38:26: RegisterProduct.
Action ended 16:38:26: RegisterProduct. Return value 1.
Action start 16:38:26: PublishComponents.
Action ended 16:38:26: PublishComponents. Return value 1.
Action start 16:38:26: MsiPublishAssemblies.
Action ended 16:38:26: MsiPublishAssemblies. Return value 1.
Action start 16:38:26: PublishFeatures.
Action ended 16:38:27: PublishFeatures. Return value 1.
Action start 16:38:27: PublishProduct.
Action ended 16:38:27: PublishProduct. Return value 1.
Action start 16:38:27: InstallExecute.
Action ended 16:38:30: InstallExecute. Return value 1.
Action start 16:38:30: RemoveExistingProducts.
Action ended 16:38:30: RemoveExistingProducts. Return value 1.
Action start 16:38:30: InstallFinalize.
Action ended 16:38:30: InstallFinalize. Return value 1.
Action ended 16:38:30: INSTALL. Return value 1.
MSI (s) (80:20) [16:38:30:599]: Product: Vista - Microsoft Components -- Installation completed successfully.

MSI (s) (80:20) [16:38:30:599]: Windows Installer installed the product. Product Name: Vista - Microsoft Components. Product Version: 43.0.0. Product Language: 1033. Manufacturer: Vista. Installation success or error status: 0.

=== Logging stopped: 16/11/2016  16:38:30 ===
