=== Logging started: 16/11/2016  16:38:52 ===
Action start 16:38:52: INSTALL.
Action start 16:38:52: AppSearch.
Action ended 16:38:52: AppSearch. Return value 1.
Action start 16:38:52: FindRelatedProducts.
Action ended 16:38:52: FindRelatedProducts. Return value 1.
Action start 16:38:52: LaunchConditions.
Action ended 16:38:52: LaunchConditions. Return value 1.
Action start 16:38:52: CCPSearch.
Action ended 16:38:52: CCPSearch. Return value 1.
Action start 16:38:52: RMCCPSearch.
Action ended 16:38:52: RMCCPSearch. Return value 0.
Action start 16:38:52: ValidateProductID.
Action ended 16:38:52: ValidateProductID. Return value 1.
Action start 16:38:52: DIRCA_TARGETDIR.
Action ended 16:38:52: DIRCA_TARGETDIR. Return value 1.
Action start 16:38:52: CostInitialize.
Action ended 16:38:52: CostInitialize. Return value 1.
Action start 16:38:52: FileCost.
Action ended 16:38:52: FileCost. Return value 1.
Action start 16:38:53: IsolateComponents.
Action ended 16:38:53: IsolateComponents. Return value 1.
Action start 16:38:53: CostFinalize.
Action ended 16:38:53: CostFinalize. Return value 1.
Action start 16:38:53: SetODBCFolders.
Action ended 16:38:53: SetODBCFolders. Return value 1.
Action start 16:38:53: InstallValidate.
Action ended 16:38:53: InstallValidate. Return value 1.
Action start 16:38:53: InstallInitialize.
Action ended 16:38:54: InstallInitialize. Return value 1.
Action start 16:38:54: AllocateRegistrySpace.
Action ended 16:38:54: AllocateRegistrySpace. Return value 1.
Action start 16:38:54: ProcessComponents.
Action ended 16:38:54: ProcessComponents. Return value 1.
Action start 16:38:54: MsiUnpublishAssemblies.
Action ended 16:38:54: MsiUnpublishAssemblies. Return value 1.
Action start 16:38:54: UnpublishComponents.
Action ended 16:38:54: UnpublishComponents. Return value 1.
Action start 16:38:54: UnpublishFeatures.
Action ended 16:38:54: UnpublishFeatures. Return value 1.
Action start 16:38:54: StopServices.
Action ended 16:38:54: StopServices. Return value 1.
Action start 16:38:54: DeleteServices.
Action ended 16:38:54: DeleteServices. Return value 1.
Action start 16:38:54: UnregisterComPlus.
Action ended 16:38:54: UnregisterComPlus. Return value 1.
Action start 16:38:54: SelfUnregModules.
Action ended 16:38:54: SelfUnregModules. Return value 1.
Action start 16:38:54: UnregisterTypeLibraries.
Action ended 16:38:54: UnregisterTypeLibraries. Return value 1.
Action start 16:38:54: RemoveODBC.
Action ended 16:38:54: RemoveODBC. Return value 1.
Action start 16:38:54: UnregisterFonts.
Action ended 16:38:54: UnregisterFonts. Return value 1.
Action start 16:38:54: RemoveRegistryValues.
Action ended 16:38:54: RemoveRegistryValues. Return value 1.
Action start 16:38:54: UnregisterClassInfo.
Action ended 16:38:54: UnregisterClassInfo. Return value 1.
Action start 16:38:54: UnregisterExtensionInfo.
Action ended 16:38:54: UnregisterExtensionInfo. Return value 1.
Action start 16:38:54: UnregisterProgIdInfo.
Action ended 16:38:54: UnregisterProgIdInfo. Return value 1.
Action start 16:38:54: UnregisterMIMEInfo.
Action ended 16:38:54: UnregisterMIMEInfo. Return value 1.
Action start 16:38:54: RemoveIniValues.
Action ended 16:38:54: RemoveIniValues. Return value 1.
Action start 16:38:54: RemoveShortcuts.
Action ended 16:38:54: RemoveShortcuts. Return value 1.
Action start 16:38:54: RemoveEnvironmentStrings.
Action ended 16:38:54: RemoveEnvironmentStrings. Return value 1.
Action start 16:38:54: RemoveDuplicateFiles.
Action ended 16:38:54: RemoveDuplicateFiles. Return value 1.
Action start 16:38:54: RemoveFiles.
Action ended 16:38:54: RemoveFiles. Return value 1.
Action start 16:38:54: RemoveFolders.
Action ended 16:38:54: RemoveFolders. Return value 1.
Action start 16:38:54: CreateFolders.
Action ended 16:38:54: CreateFolders. Return value 1.
Action start 16:38:54: MoveFiles.
Action ended 16:38:54: MoveFiles. Return value 1.
Action start 16:38:54: InstallFiles.
Action ended 16:38:54: InstallFiles. Return value 1.
Action start 16:38:54: PatchFiles.
Action ended 16:38:54: PatchFiles. Return value 1.
Action start 16:38:54: DuplicateFiles.
Action ended 16:38:54: DuplicateFiles. Return value 1.
Action start 16:38:54: BindImage.
Action ended 16:38:54: BindImage. Return value 1.
Action start 16:38:54: CreateShortcuts.
Action ended 16:38:54: CreateShortcuts. Return value 1.
Action start 16:38:54: RegisterClassInfo.
Action ended 16:38:54: RegisterClassInfo. Return value 1.
Action start 16:38:54: RegisterExtensionInfo.
Action ended 16:38:54: RegisterExtensionInfo. Return value 1.
Action start 16:38:54: RegisterProgIdInfo.
Action ended 16:38:54: RegisterProgIdInfo. Return value 1.
Action start 16:38:54: RegisterMIMEInfo.
Action ended 16:38:54: RegisterMIMEInfo. Return value 1.
Action start 16:38:54: WriteRegistryValues.
Action ended 16:38:54: WriteRegistryValues. Return value 1.
Action start 16:38:54: WriteIniValues.
Action ended 16:38:54: WriteIniValues. Return value 1.
Action start 16:38:54: WriteEnvironmentStrings.
Action ended 16:38:54: WriteEnvironmentStrings. Return value 1.
Action start 16:38:54: RegisterFonts.
Action ended 16:38:54: RegisterFonts. Return value 1.
Action start 16:38:54: InstallODBC.
Action ended 16:38:54: InstallODBC. Return value 0.
Action start 16:38:54: RegisterTypeLibraries.
Action ended 16:38:54: RegisterTypeLibraries. Return value 1.
Action start 16:38:54: SelfRegModules.
Action ended 16:38:54: SelfRegModules. Return value 1.
Action start 16:38:54: RegisterComPlus.
Action ended 16:38:54: RegisterComPlus. Return value 1.
Action start 16:38:55: InstallServices.
Action ended 16:38:55: InstallServices. Return value 1.
Action start 16:38:55: StartServices.
Action ended 16:38:55: StartServices. Return value 1.
Action start 16:38:55: RegisterUser.
Action ended 16:38:55: RegisterUser. Return value 1.
Action start 16:38:55: RegisterProduct.
Action ended 16:38:55: RegisterProduct. Return value 1.
Action start 16:38:55: PublishComponents.
Action ended 16:38:55: PublishComponents. Return value 1.
Action start 16:38:55: MsiPublishAssemblies.
Action ended 16:38:55: MsiPublishAssemblies. Return value 1.
Action start 16:38:55: PublishFeatures.
Action ended 16:38:55: PublishFeatures. Return value 1.
Action start 16:38:55: PublishProduct.
Action ended 16:38:55: PublishProduct. Return value 1.
Action start 16:38:55: InstallExecute.
Action ended 16:39:15: InstallExecute. Return value 1.
Action start 16:39:15: RemoveExistingProducts.
Action ended 16:39:15: RemoveExistingProducts. Return value 1.
Action start 16:39:15: InstallFinalize.
Action ended 16:39:15: InstallFinalize. Return value 1.
Action ended 16:39:15: INSTALL. Return value 1.
MSI (s) (80:18) [16:39:15:605]: Product: Vista Third Party Controls -- Installation completed successfully.

MSI (s) (80:18) [16:39:15:605]: Windows Installer installed the product. Product Name: Vista Third Party Controls. Product Version: 43.0.0. Product Language: 1033. Manufacturer: Vista. Installation success or error status: 0.

=== Logging stopped: 16/11/2016  16:39:15 ===
