=== Logging started: 8/16/2018  17:50:55 ===
Action start 17:50:55: INSTALL.
Action start 17:50:55: WindowsFolder.A95D0BB4_0582_442D_B456_D295EAEB7628.
Action ended 17:50:55: WindowsFolder.A95D0BB4_0582_442D_B456_D295EAEB7628. Return value 1.
Action start 17:50:55: SystemFolder.A95D0BB4_0582_442D_B456_D295EAEB7628.
Action ended 17:50:55: SystemFolder.A95D0BB4_0582_442D_B456_D295EAEB7628. Return value 1.
Action start 17:50:55: CommonFilesFolder.A95D0BB4_0582_442D_B456_D295EAEB7628.
Action ended 17:50:55: CommonFilesFolder.A95D0BB4_0582_442D_B456_D295EAEB7628. Return value 1.
Action start 17:50:55: ProgramFilesFolder.A95D0BB4_0582_442D_B456_D295EAEB7628.
Action ended 17:50:55: ProgramFilesFolder.A95D0BB4_0582_442D_B456_D295EAEB7628. Return value 1.
Action start 17:50:55: ProgramFilesFolder.68FCF676_98BE_41AD_8EC9_E806EEC940CB.
Action ended 17:50:55: ProgramFilesFolder.68FCF676_98BE_41AD_8EC9_E806EEC940CB. Return value 1.
Action start 17:50:55: CommonFilesFolder.68FCF676_98BE_41AD_8EC9_E806EEC940CB.
Action ended 17:50:55: CommonFilesFolder.68FCF676_98BE_41AD_8EC9_E806EEC940CB. Return value 1.
Action start 17:50:55: AppSearch.
Action ended 17:50:55: AppSearch. Return value 1.
Action start 17:50:55: FindRelatedProducts.
Action ended 17:50:55: FindRelatedProducts. Return value 1.
Action start 17:50:55: LaunchConditions.
Action ended 17:50:55: LaunchConditions. Return value 1.
Action start 17:50:55: CCPSearch.
Action ended 17:50:55: CCPSearch. Return value 1.
Action start 17:50:55: RMCCPSearch.
Action ended 17:50:55: RMCCPSearch. Return value 0.
Action start 17:50:55: ValidateProductID.
Action ended 17:50:55: ValidateProductID. Return value 1.
Action start 17:50:55: DetectWantedSoftware.A95D0BB4_0582_442D_B456_D295EAEB7628.
Netscape Server cannot be found.
Searching for file C:\Program Files (x86)\Common Files\System\ole db\msolap.dll
Action ended 17:50:55: DetectWantedSoftware.A95D0BB4_0582_442D_B456_D295EAEB7628. Return value 1.
Action start 17:50:55: DIRCA_TARGETDIR.
Action ended 17:50:55: DIRCA_TARGETDIR. Return value 1.
Action start 17:50:55: CostInitialize.
Action ended 17:50:55: CostInitialize. Return value 1.
Action start 17:50:55: FileCost.
Action ended 17:50:55: FileCost. Return value 1.
Action start 17:50:55: IsolateComponents.
Action ended 17:50:55: IsolateComponents. Return value 1.
Action start 17:50:55: SetMsdevTemplatePath.A95D0BB4_0582_442D_B456_D295EAEB7628.
Action ended 17:50:55: SetMsdevTemplatePath.A95D0BB4_0582_442D_B456_D295EAEB7628. Return value 1.
Action start 17:50:55: CostFinalize.
Action ended 17:50:55: CostFinalize. Return value 1.
Action start 17:50:55: SetODBCPath.A95D0BB4_0582_442D_B456_D295EAEB7628.
Action ended 17:50:55: SetODBCPath.A95D0BB4_0582_442D_B456_D295EAEB7628. Return value 1.
Action start 17:50:55: SetODBCFolders.
Action ended 17:50:55: SetODBCFolders. Return value 1.
Action start 17:50:55: InstallValidate.
Action ended 17:50:55: InstallValidate. Return value 1.
Action start 17:50:55: GetPid.A95D0BB4_0582_442D_B456_D295EAEB7628.
Action ended 17:50:55: GetPid.A95D0BB4_0582_442D_B456_D295EAEB7628. Return value 1.
Action start 17:50:55: InstallInitialize.
Action ended 17:50:55: InstallInitialize. Return value 1.
Action start 17:50:55: GetWebInfo.A95D0BB4_0582_442D_B456_D295EAEB7628.
SaveTableToIniFile: Table SeagateWebVirtualDir doesn't exist
SaveTableToIniFile: Table SeagateWebMimeType doesn't exist
Couldn't get component state for component "wcsdsapi.dll.413A0FA5_373A_11D4_91AE_009027A76C22".uReturn 1607
DEBUG: Error 2769:  Custom Action GetWebInfo.A95D0BB4_0582_442D_B456_D295EAEB7628 did not close 2 MSIHANDLEs.
The installer has encountered an unexpected error installing this package. This may indicate a problem with this package. The error code is 2769. The arguments are: GetWebInfo.A95D0BB4_0582_442D_B456_D295EAEB7628, 2, 
Action ended 17:50:55: GetWebInfo.A95D0BB4_0582_442D_B456_D295EAEB7628. Return value 1.
Action start 17:50:55: RemoveExistingProducts.
Action ended 17:50:55: RemoveExistingProducts. Return value 1.
Action start 17:50:55: AddProgressTime2.A95D0BB4_0582_442D_B456_D295EAEB7628.
AddTimeToProgressBar: Adding 60 seconds
Action ended 17:50:55: AddProgressTime2.A95D0BB4_0582_442D_B456_D295EAEB7628. Return value 1.
Action start 17:50:55: CommitWindowsSettingsAction.A95D0BB4_0582_442D_B456_D295EAEB7628.
Action ended 17:50:55: CommitWindowsSettingsAction.A95D0BB4_0582_442D_B456_D295EAEB7628. Return value 1.
Action start 17:50:55: AllocateRegistrySpace.
Action ended 17:50:55: AllocateRegistrySpace. Return value 1.
Action start 17:50:55: ProcessComponents.
Action ended 17:50:55: ProcessComponents. Return value 1.
Action start 17:50:55: AddProgressTime1.A95D0BB4_0582_442D_B456_D295EAEB7628.
AddProgressTime1:Started
AddTimeToProgressBar: Adding 170 seconds
Action ended 17:50:56: AddProgressTime1.A95D0BB4_0582_442D_B456_D295EAEB7628. Return value 1.
Action start 17:50:56: MsiUnpublishAssemblies.
Action ended 17:50:56: MsiUnpublishAssemblies. Return value 1.
Action start 17:50:56: UnpublishComponents.
Action ended 17:50:56: UnpublishComponents. Return value 1.
Action start 17:50:56: UnpublishFeatures.
Action ended 17:50:56: UnpublishFeatures. Return value 1.
Action start 17:50:56: StopServices.
Action ended 17:50:56: StopServices. Return value 1.
Action start 17:50:56: UnConfigureWebServices.A95D0BB4_0582_442D_B456_D295EAEB7628.
Action ended 17:50:56: UnConfigureWebServices.A95D0BB4_0582_442D_B456_D295EAEB7628. Return value 1.
Action start 17:50:56: DeleteServices.
Action ended 17:50:56: DeleteServices. Return value 1.
Action start 17:50:56: UnregisterComPlus.
Action ended 17:50:56: UnregisterComPlus. Return value 1.
Action start 17:50:56: SelfUnregModules.
Action ended 17:50:56: SelfUnregModules. Return value 1.
Action start 17:50:56: UnregisterTypeLibraries.
Action ended 17:50:56: UnregisterTypeLibraries. Return value 1.
Action start 17:50:56: RemoveODBC.
Action ended 17:50:56: RemoveODBC. Return value 1.
Action start 17:50:56: UnregisterFonts.
Action ended 17:50:56: UnregisterFonts. Return value 1.
Action start 17:50:56: RemoveRegistryValues.
Action ended 17:50:56: RemoveRegistryValues. Return value 1.
Action start 17:50:56: UnregisterClassInfo.
Action ended 17:50:56: UnregisterClassInfo. Return value 1.
Action start 17:50:56: UnregisterExtensionInfo.
Action ended 17:50:56: UnregisterExtensionInfo. Return value 1.
Action start 17:50:56: UnregisterProgIdInfo.
Action ended 17:50:56: UnregisterProgIdInfo. Return value 1.
Action start 17:50:56: UnregisterMIMEInfo.
Action ended 17:50:56: UnregisterMIMEInfo. Return value 1.
Action start 17:50:56: RemoveIniValues.
Action ended 17:50:56: RemoveIniValues. Return value 1.
Action start 17:50:56: RemoveShortcuts.
Action ended 17:50:56: RemoveShortcuts. Return value 1.
Action start 17:50:56: RemoveEnvironmentStrings.
Action ended 17:50:56: RemoveEnvironmentStrings. Return value 1.
Action start 17:50:56: RemoveDuplicateFiles.
Action ended 17:50:56: RemoveDuplicateFiles. Return value 1.
Action start 17:50:56: RemoveFiles.
Action ended 17:50:56: RemoveFiles. Return value 1.
Action start 17:50:56: RemoveFolders.
Action ended 17:50:56: RemoveFolders. Return value 1.
Action start 17:50:56: CreateFolders.
Action ended 17:50:56: CreateFolders. Return value 1.
Action start 17:50:56: MoveFiles.
Action ended 17:50:56: MoveFiles. Return value 1.
Action start 17:50:56: CheckSeagateCondition.A95D0BB4_0582_442D_B456_D295EAEB7628.
Action ended 17:50:56: CheckSeagateCondition.A95D0BB4_0582_442D_B456_D295EAEB7628. Return value 1.
Action start 17:50:56: InstallFiles.
Action ended 17:50:56: InstallFiles. Return value 1.
Action start 17:50:56: PatchFiles.
Action ended 17:50:56: PatchFiles. Return value 1.
Action start 17:50:56: DuplicateFiles.
Action ended 17:50:56: DuplicateFiles. Return value 1.
Action start 17:50:56: BindImage.
Action ended 17:50:56: BindImage. Return value 1.
Action start 17:50:56: CreateInetShortcuts.A95D0BB4_0582_442D_B456_D295EAEB7628.
Action ended 17:50:56: CreateInetShortcuts.A95D0BB4_0582_442D_B456_D295EAEB7628. Return value 1.
Action start 17:50:56: CreateShortcuts.
Action ended 17:50:56: CreateShortcuts. Return value 1.
Action start 17:50:56: ConfigureWebServices.A95D0BB4_0582_442D_B456_D295EAEB7628.
Action ended 17:50:56: ConfigureWebServices.A95D0BB4_0582_442D_B456_D295EAEB7628. Return value 1.
Action start 17:50:56: RegisterClassInfo.
Action ended 17:50:56: RegisterClassInfo. Return value 1.
Action start 17:50:56: RegisterExtensionInfo.
Action ended 17:50:56: RegisterExtensionInfo. Return value 1.
Action start 17:50:56: RegisterProgIdInfo.
Action ended 17:50:56: RegisterProgIdInfo. Return value 1.
Action start 17:50:56: RegisterMIMEInfo.
Action ended 17:50:56: RegisterMIMEInfo. Return value 1.
Action start 17:50:56: FixRegistry.A95D0BB4_0582_442D_B456_D295EAEB7628.
Action ended 17:50:57: FixRegistry.A95D0BB4_0582_442D_B456_D295EAEB7628. Return value 1.
Action start 17:50:57: WriteRegistryValues.
Action ended 17:50:57: WriteRegistryValues. Return value 1.
Action start 17:50:57: WriteIniValues.
Action ended 17:50:57: WriteIniValues. Return value 1.
Action start 17:50:57: WriteEnvironmentStrings.
Action ended 17:50:57: WriteEnvironmentStrings. Return value 1.
Action start 17:50:57: RegisterFonts.
Action ended 17:50:57: RegisterFonts. Return value 1.
Action start 17:50:57: InstallODBC.
Action ended 17:50:57: InstallODBC. Return value 0.
Action start 17:50:57: RegisterTypeLibraries.
Action ended 17:50:57: RegisterTypeLibraries. Return value 1.
Action start 17:50:57: SelfRegModules.
Action ended 17:50:57: SelfRegModules. Return value 1.
Action start 17:50:57: RegisterComPlus.
Action ended 17:50:57: RegisterComPlus. Return value 1.
Action start 17:50:57: RemoveIPService.A95D0BB4_0582_442D_B456_D295EAEB7628.
DEBUG: Error 2769:  Custom Action RemoveIPService.A95D0BB4_0582_442D_B456_D295EAEB7628 did not close 1 MSIHANDLEs.
The installer has encountered an unexpected error installing this package. This may indicate a problem with this package. The error code is 2769. The arguments are: RemoveIPService.A95D0BB4_0582_442D_B456_D295EAEB7628, 1, 
Action ended 17:50:57: RemoveIPService.A95D0BB4_0582_442D_B456_D295EAEB7628. Return value 1.
Action start 17:50:57: AddIPService.A95D0BB4_0582_442D_B456_D295EAEB7628.
DEBUG: Error 2769:  Custom Action AddIPService.A95D0BB4_0582_442D_B456_D295EAEB7628 did not close 1 MSIHANDLEs.
The installer has encountered an unexpected error installing this package. This may indicate a problem with this package. The error code is 2769. The arguments are: AddIPService.A95D0BB4_0582_442D_B456_D295EAEB7628, 1, 
Action ended 17:50:57: AddIPService.A95D0BB4_0582_442D_B456_D295EAEB7628. Return value 1.
Action start 17:50:57: InstallServices.
Action ended 17:50:57: InstallServices. Return value 1.
Action start 17:50:57: QueryService.A95D0BB4_0582_442D_B456_D295EAEB7628.
DEBUG: Error 2769:  Custom Action QueryService.A95D0BB4_0582_442D_B456_D295EAEB7628 did not close 1 MSIHANDLEs.
The installer has encountered an unexpected error installing this package. This may indicate a problem with this package. The error code is 2769. The arguments are: QueryService.A95D0BB4_0582_442D_B456_D295EAEB7628, 1, 
Action ended 17:50:57: QueryService.A95D0BB4_0582_442D_B456_D295EAEB7628. Return value 1.
Action start 17:50:57: FixService.A95D0BB4_0582_442D_B456_D295EAEB7628.
Action ended 17:50:57: FixService.A95D0BB4_0582_442D_B456_D295EAEB7628. Return value 1.
Action start 17:50:57: StartServices.
Action ended 17:50:57: StartServices. Return value 1.
Action start 17:50:57: RegisterUser.
Action ended 17:50:57: RegisterUser. Return value 1.
Action start 17:50:57: RegisterProduct.
Action ended 17:50:57: RegisterProduct. Return value 1.
Action start 17:50:57: PublishComponents.
Action ended 17:50:57: PublishComponents. Return value 1.
Action start 17:50:57: MsiPublishAssemblies.
Action ended 17:50:57: MsiPublishAssemblies. Return value 1.
Action start 17:50:57: PublishFeatures.
Action ended 17:50:57: PublishFeatures. Return value 1.
Action start 17:50:57: PublishProduct.
Action ended 17:50:57: PublishProduct. Return value 1.
Action start 17:50:57: InstallFinalize.
No web components to uninstall
UseProgressTime: 30 seconds
UseProgressTime: 60 seconds
Action ended 17:51:01: InstallFinalize. Return value 1.
Action ended 17:51:01: INSTALL. Return value 1.
MSI (s) (4C:6C) [17:51:01:067]: Product: Vista - Crystal Reports 9 Components -- Installation completed successfully.

MSI (s) (4C:6C) [17:51:01:067]: Windows Installer installed the product. Product Name: Vista - Crystal Reports 9 Components. Product Version: 30.0.5. Product Language: 1033. Manufacturer: Vista. Installation success or error status: 0.

=== Logging stopped: 8/16/2018  17:51:01 ===
